<?xml version="1.0" encoding="utf-8"?>
<!DOCTYPE eagle SYSTEM "eagle.dtd">
<eagle version="6.4">
<drawing>
<settings>
<setting alwaysvectorfont="no"/>
<setting verticaltext="up"/>
</settings>
<grid distance="0.1" unitdist="inch" unit="inch" style="lines" multiple="1" display="yes" altdistance="0.01" altunitdist="inch" altunit="inch"/>
<layers>
<layer number="1" name="Top" color="4" fill="1" visible="yes" active="yes"/>
<layer number="16" name="Bottom" color="1" fill="1" visible="yes" active="yes"/>
<layer number="17" name="Pads" color="2" fill="1" visible="yes" active="yes"/>
<layer number="18" name="Vias" color="2" fill="1" visible="yes" active="yes"/>
<layer number="19" name="Unrouted" color="6" fill="1" visible="yes" active="yes"/>
<layer number="20" name="Dimension" color="15" fill="1" visible="yes" active="yes"/>
<layer number="21" name="tPlace" color="7" fill="1" visible="yes" active="yes"/>
<layer number="22" name="bPlace" color="7" fill="1" visible="yes" active="yes"/>
<layer number="23" name="tOrigins" color="15" fill="1" visible="yes" active="yes"/>
<layer number="24" name="bOrigins" color="15" fill="1" visible="yes" active="yes"/>
<layer number="25" name="tNames" color="7" fill="1" visible="yes" active="yes"/>
<layer number="26" name="bNames" color="7" fill="1" visible="yes" active="yes"/>
<layer number="27" name="tValues" color="7" fill="1" visible="yes" active="yes"/>
<layer number="28" name="bValues" color="7" fill="1" visible="yes" active="yes"/>
<layer number="29" name="tStop" color="7" fill="3" visible="no" active="yes"/>
<layer number="30" name="bStop" color="7" fill="6" visible="no" active="yes"/>
<layer number="31" name="tCream" color="7" fill="4" visible="no" active="yes"/>
<layer number="32" name="bCream" color="7" fill="5" visible="no" active="yes"/>
<layer number="33" name="tFinish" color="6" fill="3" visible="no" active="yes"/>
<layer number="34" name="bFinish" color="6" fill="6" visible="no" active="yes"/>
<layer number="35" name="tGlue" color="7" fill="4" visible="no" active="yes"/>
<layer number="36" name="bGlue" color="7" fill="5" visible="no" active="yes"/>
<layer number="37" name="tTest" color="7" fill="1" visible="no" active="yes"/>
<layer number="38" name="bTest" color="7" fill="1" visible="no" active="yes"/>
<layer number="39" name="tKeepout" color="4" fill="11" visible="yes" active="yes"/>
<layer number="40" name="bKeepout" color="1" fill="11" visible="yes" active="yes"/>
<layer number="41" name="tRestrict" color="4" fill="10" visible="yes" active="yes"/>
<layer number="42" name="bRestrict" color="1" fill="10" visible="yes" active="yes"/>
<layer number="43" name="vRestrict" color="2" fill="10" visible="yes" active="yes"/>
<layer number="44" name="Drills" color="7" fill="1" visible="no" active="yes"/>
<layer number="45" name="Holes" color="7" fill="1" visible="no" active="yes"/>
<layer number="46" name="Milling" color="3" fill="1" visible="no" active="yes"/>
<layer number="47" name="Measures" color="7" fill="1" visible="no" active="yes"/>
<layer number="48" name="Document" color="7" fill="1" visible="yes" active="yes"/>
<layer number="49" name="Reference" color="7" fill="1" visible="yes" active="yes"/>
<layer number="51" name="tDocu" color="7" fill="1" visible="yes" active="yes"/>
<layer number="52" name="bDocu" color="7" fill="1" visible="yes" active="yes"/>
<layer number="91" name="Nets" color="2" fill="1" visible="yes" active="yes"/>
<layer number="92" name="Busses" color="1" fill="1" visible="yes" active="yes"/>
<layer number="93" name="Pins" color="2" fill="1" visible="yes" active="yes"/>
<layer number="94" name="Symbols" color="4" fill="1" visible="yes" active="yes"/>
<layer number="95" name="Names" color="7" fill="1" visible="yes" active="yes"/>
<layer number="96" name="Values" color="7" fill="1" visible="yes" active="yes"/>
<layer number="97" name="Info" color="7" fill="1" visible="yes" active="yes"/>
<layer number="98" name="Guide" color="6" fill="1" visible="yes" active="yes"/>
</layers>
<library>
<packages>
<package name="MXA14A">
<smd name="1" x="-2.8448" y="1.9558" dx="1.4224" dy="0.3556" layer="1"/>
<smd name="2" x="-2.8448" y="1.2954" dx="1.4224" dy="0.3556" layer="1"/>
<smd name="3" x="-2.8448" y="0.6604" dx="1.4224" dy="0.3556" layer="1"/>
<smd name="4" x="-2.8448" y="0" dx="1.4224" dy="0.3556" layer="1"/>
<smd name="5" x="-2.8448" y="-0.6604" dx="1.4224" dy="0.3556" layer="1"/>
<smd name="6" x="-2.8448" y="-1.2954" dx="1.4224" dy="0.3556" layer="1"/>
<smd name="7" x="-2.8448" y="-1.9558" dx="1.4224" dy="0.3556" layer="1"/>
<smd name="8" x="2.8448" y="-1.9558" dx="1.4224" dy="0.3556" layer="1" rot="R180"/>
<smd name="9" x="2.8448" y="-1.2954" dx="1.4224" dy="0.3556" layer="1" rot="R180"/>
<smd name="10" x="2.8448" y="-0.6604" dx="1.4224" dy="0.3556" layer="1" rot="R180"/>
<smd name="11" x="2.8448" y="0" dx="1.4224" dy="0.3556" layer="1" rot="R180"/>
<smd name="12" x="2.8448" y="0.6604" dx="1.4224" dy="0.3556" layer="1" rot="R180"/>
<smd name="13" x="2.8448" y="1.2954" dx="1.4224" dy="0.3556" layer="1" rot="R180"/>
<smd name="14" x="2.8448" y="1.9558" dx="1.4224" dy="0.3556" layer="1" rot="R180"/>
<smd name="GND" x="0" y="0" dx="3" dy="3.1" layer="1"/>
<wire x1="-2.2352" y1="1.8034" x2="-2.2352" y2="2.1082" width="0.1524" layer="51"/>
<wire x1="-2.2352" y1="2.1082" x2="-3.2004" y2="2.1082" width="0.1524" layer="51"/>
<wire x1="-3.2004" y1="2.1082" x2="-3.2004" y2="1.8034" width="0.1524" layer="51"/>
<wire x1="-3.2004" y1="1.8034" x2="-2.2352" y2="1.8034" width="0.1524" layer="51"/>
<wire x1="-2.2352" y1="1.143" x2="-2.2352" y2="1.4478" width="0.1524" layer="51"/>
<wire x1="-2.2352" y1="1.4478" x2="-3.2004" y2="1.4478" width="0.1524" layer="51"/>
<wire x1="-3.2004" y1="1.4478" x2="-3.2004" y2="1.143" width="0.1524" layer="51"/>
<wire x1="-3.2004" y1="1.143" x2="-2.2352" y2="1.143" width="0.1524" layer="51"/>
<wire x1="-2.2352" y1="0.508" x2="-2.2352" y2="0.8128" width="0.1524" layer="51"/>
<wire x1="-2.2352" y1="0.8128" x2="-3.2004" y2="0.8128" width="0.1524" layer="51"/>
<wire x1="-3.2004" y1="0.8128" x2="-3.2004" y2="0.508" width="0.1524" layer="51"/>
<wire x1="-3.2004" y1="0.508" x2="-2.2352" y2="0.508" width="0.1524" layer="51"/>
<wire x1="-2.2352" y1="-0.1524" x2="-2.2352" y2="0.1524" width="0.1524" layer="51"/>
<wire x1="-2.2352" y1="0.1524" x2="-3.2004" y2="0.1524" width="0.1524" layer="51"/>
<wire x1="-3.2004" y1="0.1524" x2="-3.2004" y2="-0.1524" width="0.1524" layer="51"/>
<wire x1="-3.2004" y1="-0.1524" x2="-2.2352" y2="-0.1524" width="0.1524" layer="51"/>
<wire x1="-2.2352" y1="-0.8128" x2="-2.2352" y2="-0.508" width="0.1524" layer="51"/>
<wire x1="-2.2352" y1="-0.508" x2="-3.2004" y2="-0.508" width="0.1524" layer="51"/>
<wire x1="-3.2004" y1="-0.508" x2="-3.2004" y2="-0.8128" width="0.1524" layer="51"/>
<wire x1="-3.2004" y1="-0.8128" x2="-2.2352" y2="-0.8128" width="0.1524" layer="51"/>
<wire x1="-2.2352" y1="-1.4478" x2="-2.2352" y2="-1.143" width="0.1524" layer="51"/>
<wire x1="-2.2352" y1="-1.143" x2="-3.2004" y2="-1.143" width="0.1524" layer="51"/>
<wire x1="-3.2004" y1="-1.143" x2="-3.2004" y2="-1.4478" width="0.1524" layer="51"/>
<wire x1="-3.2004" y1="-1.4478" x2="-2.2352" y2="-1.4478" width="0.1524" layer="51"/>
<wire x1="-2.2352" y1="-2.1082" x2="-2.2352" y2="-1.8034" width="0.1524" layer="51"/>
<wire x1="-2.2352" y1="-1.8034" x2="-3.2004" y2="-1.8034" width="0.1524" layer="51"/>
<wire x1="-3.2004" y1="-1.8034" x2="-3.2004" y2="-2.1082" width="0.1524" layer="51"/>
<wire x1="-3.2004" y1="-2.1082" x2="-2.2352" y2="-2.1082" width="0.1524" layer="51"/>
<wire x1="2.2352" y1="-1.8034" x2="2.2352" y2="-2.1082" width="0.1524" layer="51"/>
<wire x1="2.2352" y1="-2.1082" x2="3.2004" y2="-2.1082" width="0.1524" layer="51"/>
<wire x1="3.2004" y1="-2.1082" x2="3.2004" y2="-1.8034" width="0.1524" layer="51"/>
<wire x1="3.2004" y1="-1.8034" x2="2.2352" y2="-1.8034" width="0.1524" layer="51"/>
<wire x1="2.2352" y1="-1.143" x2="2.2352" y2="-1.4478" width="0.1524" layer="51"/>
<wire x1="2.2352" y1="-1.4478" x2="3.2004" y2="-1.4478" width="0.1524" layer="51"/>
<wire x1="3.2004" y1="-1.4478" x2="3.2004" y2="-1.143" width="0.1524" layer="51"/>
<wire x1="3.2004" y1="-1.143" x2="2.2352" y2="-1.143" width="0.1524" layer="51"/>
<wire x1="2.2352" y1="-0.508" x2="2.2352" y2="-0.8128" width="0.1524" layer="51"/>
<wire x1="2.2352" y1="-0.8128" x2="3.2004" y2="-0.8128" width="0.1524" layer="51"/>
<wire x1="3.2004" y1="-0.8128" x2="3.2004" y2="-0.508" width="0.1524" layer="51"/>
<wire x1="3.2004" y1="-0.508" x2="2.2352" y2="-0.508" width="0.1524" layer="51"/>
<wire x1="2.2352" y1="0.1524" x2="2.2352" y2="-0.1524" width="0.1524" layer="51"/>
<wire x1="2.2352" y1="-0.1524" x2="3.2004" y2="-0.1524" width="0.1524" layer="51"/>
<wire x1="3.2004" y1="-0.1524" x2="3.2004" y2="0.1524" width="0.1524" layer="51"/>
<wire x1="3.2004" y1="0.1524" x2="2.2352" y2="0.1524" width="0.1524" layer="51"/>
<wire x1="2.2352" y1="0.8128" x2="2.2352" y2="0.508" width="0.1524" layer="51"/>
<wire x1="2.2352" y1="0.508" x2="3.2004" y2="0.508" width="0.1524" layer="51"/>
<wire x1="3.2004" y1="0.508" x2="3.2004" y2="0.8128" width="0.1524" layer="51"/>
<wire x1="3.2004" y1="0.8128" x2="2.2352" y2="0.8128" width="0.1524" layer="51"/>
<wire x1="2.2352" y1="1.4478" x2="2.2352" y2="1.143" width="0.1524" layer="51"/>
<wire x1="2.2352" y1="1.143" x2="3.2004" y2="1.143" width="0.1524" layer="51"/>
<wire x1="3.2004" y1="1.143" x2="3.2004" y2="1.4478" width="0.1524" layer="51"/>
<wire x1="3.2004" y1="1.4478" x2="2.2352" y2="1.4478" width="0.1524" layer="51"/>
<wire x1="2.2352" y1="2.1082" x2="2.2352" y2="1.8034" width="0.1524" layer="51"/>
<wire x1="2.2352" y1="1.8034" x2="3.2004" y2="1.8034" width="0.1524" layer="51"/>
<wire x1="3.2004" y1="1.8034" x2="3.2004" y2="2.1082" width="0.1524" layer="51"/>
<wire x1="3.2004" y1="2.1082" x2="2.2352" y2="2.1082" width="0.1524" layer="51"/>
<wire x1="-2.2352" y1="-2.54" x2="2.2352" y2="-2.54" width="0.1524" layer="51"/>
<wire x1="2.2352" y1="-2.54" x2="2.2352" y2="2.54" width="0.1524" layer="51"/>
<wire x1="2.2352" y1="2.54" x2="-0.3048" y2="2.54" width="0.1524" layer="51"/>
<wire x1="-0.3048" y1="2.54" x2="-2.2352" y2="2.54" width="0.1524" layer="51"/>
<wire x1="-2.2352" y1="2.54" x2="-2.2352" y2="-2.54" width="0.1524" layer="51"/>
<wire x1="-1.3716" y1="1.9558" x2="-1.524" y2="1.9558" width="0.1524" layer="51" curve="-180"/>
<wire x1="-1.524" y1="1.9558" x2="-1.3716" y2="1.9558" width="0.1524" layer="51" curve="-180"/>
<wire x1="0.3048" y1="2.5654" x2="-0.3048" y2="2.54" width="0" layer="51" curve="-180"/>
<wire x1="-2.2352" y1="-2.54" x2="2.2352" y2="-2.54" width="0.1524" layer="21"/>
<wire x1="2.2352" y1="2.54" x2="-0.3048" y2="2.54" width="0.1524" layer="21"/>
<wire x1="-0.3048" y1="2.54" x2="-2.2352" y2="2.54" width="0.1524" layer="21"/>
<wire x1="-1.3716" y1="1.9558" x2="-1.524" y2="1.9558" width="0.1524" layer="21" curve="-180"/>
<wire x1="-1.524" y1="1.9558" x2="-1.3716" y2="1.9558" width="0.1524" layer="21" curve="-180"/>
<wire x1="0.3048" y1="2.5654" x2="-0.3048" y2="2.54" width="0" layer="21" curve="-180"/>
<text x="-2.8702" y="4.445" size="1.27" layer="25" ratio="6" rot="SR0">&gt;NAME</text>
<text x="-3.4544" y="3.175" size="1.27" layer="27" ratio="6" rot="SR0">&gt;VALUE</text>
</package>
<package name="MXA14A-M">
<smd name="1" x="-2.8956" y="1.9558" dx="1.7272" dy="0.4064" layer="1"/>
<smd name="2" x="-2.8956" y="1.2954" dx="1.7272" dy="0.4064" layer="1"/>
<smd name="3" x="-2.8956" y="0.6604" dx="1.7272" dy="0.4064" layer="1"/>
<smd name="4" x="-2.8956" y="0" dx="1.7272" dy="0.4064" layer="1"/>
<smd name="5" x="-2.8956" y="-0.6604" dx="1.7272" dy="0.4064" layer="1"/>
<smd name="6" x="-2.8956" y="-1.2954" dx="1.7272" dy="0.4064" layer="1"/>
<smd name="7" x="-2.8956" y="-1.9558" dx="1.7272" dy="0.4064" layer="1"/>
<smd name="8" x="2.8956" y="-1.9558" dx="1.7272" dy="0.4064" layer="1" rot="R180"/>
<smd name="9" x="2.8956" y="-1.2954" dx="1.7272" dy="0.4064" layer="1" rot="R180"/>
<smd name="10" x="2.8956" y="-0.6604" dx="1.7272" dy="0.4064" layer="1" rot="R180"/>
<smd name="11" x="2.8956" y="0" dx="1.7272" dy="0.4064" layer="1" rot="R180"/>
<smd name="12" x="2.8956" y="0.6604" dx="1.7272" dy="0.4064" layer="1" rot="R180"/>
<smd name="13" x="2.8956" y="1.2954" dx="1.7272" dy="0.4064" layer="1" rot="R180"/>
<smd name="14" x="2.8956" y="1.9558" dx="1.7272" dy="0.4064" layer="1" rot="R180"/>
<smd name="15" x="0" y="0" dx="3" dy="3.1" layer="1"/>
<wire x1="-2.2352" y1="1.8034" x2="-2.2352" y2="2.1082" width="0.1524" layer="51"/>
<wire x1="-2.2352" y1="2.1082" x2="-3.2004" y2="2.1082" width="0.1524" layer="51"/>
<wire x1="-3.2004" y1="2.1082" x2="-3.2004" y2="1.8034" width="0.1524" layer="51"/>
<wire x1="-3.2004" y1="1.8034" x2="-2.2352" y2="1.8034" width="0.1524" layer="51"/>
<wire x1="-2.2352" y1="1.143" x2="-2.2352" y2="1.4478" width="0.1524" layer="51"/>
<wire x1="-2.2352" y1="1.4478" x2="-3.2004" y2="1.4478" width="0.1524" layer="51"/>
<wire x1="-3.2004" y1="1.4478" x2="-3.2004" y2="1.143" width="0.1524" layer="51"/>
<wire x1="-3.2004" y1="1.143" x2="-2.2352" y2="1.143" width="0.1524" layer="51"/>
<wire x1="-2.2352" y1="0.508" x2="-2.2352" y2="0.8128" width="0.1524" layer="51"/>
<wire x1="-2.2352" y1="0.8128" x2="-3.2004" y2="0.8128" width="0.1524" layer="51"/>
<wire x1="-3.2004" y1="0.8128" x2="-3.2004" y2="0.508" width="0.1524" layer="51"/>
<wire x1="-3.2004" y1="0.508" x2="-2.2352" y2="0.508" width="0.1524" layer="51"/>
<wire x1="-2.2352" y1="-0.1524" x2="-2.2352" y2="0.1524" width="0.1524" layer="51"/>
<wire x1="-2.2352" y1="0.1524" x2="-3.2004" y2="0.1524" width="0.1524" layer="51"/>
<wire x1="-3.2004" y1="0.1524" x2="-3.2004" y2="-0.1524" width="0.1524" layer="51"/>
<wire x1="-3.2004" y1="-0.1524" x2="-2.2352" y2="-0.1524" width="0.1524" layer="51"/>
<wire x1="-2.2352" y1="-0.8128" x2="-2.2352" y2="-0.508" width="0.1524" layer="51"/>
<wire x1="-2.2352" y1="-0.508" x2="-3.2004" y2="-0.508" width="0.1524" layer="51"/>
<wire x1="-3.2004" y1="-0.508" x2="-3.2004" y2="-0.8128" width="0.1524" layer="51"/>
<wire x1="-3.2004" y1="-0.8128" x2="-2.2352" y2="-0.8128" width="0.1524" layer="51"/>
<wire x1="-2.2352" y1="-1.4478" x2="-2.2352" y2="-1.143" width="0.1524" layer="51"/>
<wire x1="-2.2352" y1="-1.143" x2="-3.2004" y2="-1.143" width="0.1524" layer="51"/>
<wire x1="-3.2004" y1="-1.143" x2="-3.2004" y2="-1.4478" width="0.1524" layer="51"/>
<wire x1="-3.2004" y1="-1.4478" x2="-2.2352" y2="-1.4478" width="0.1524" layer="51"/>
<wire x1="-2.2352" y1="-2.1082" x2="-2.2352" y2="-1.8034" width="0.1524" layer="51"/>
<wire x1="-2.2352" y1="-1.8034" x2="-3.2004" y2="-1.8034" width="0.1524" layer="51"/>
<wire x1="-3.2004" y1="-1.8034" x2="-3.2004" y2="-2.1082" width="0.1524" layer="51"/>
<wire x1="-3.2004" y1="-2.1082" x2="-2.2352" y2="-2.1082" width="0.1524" layer="51"/>
<wire x1="2.2352" y1="-1.8034" x2="2.2352" y2="-2.1082" width="0.1524" layer="51"/>
<wire x1="2.2352" y1="-2.1082" x2="3.2004" y2="-2.1082" width="0.1524" layer="51"/>
<wire x1="3.2004" y1="-2.1082" x2="3.2004" y2="-1.8034" width="0.1524" layer="51"/>
<wire x1="3.2004" y1="-1.8034" x2="2.2352" y2="-1.8034" width="0.1524" layer="51"/>
<wire x1="2.2352" y1="-1.143" x2="2.2352" y2="-1.4478" width="0.1524" layer="51"/>
<wire x1="2.2352" y1="-1.4478" x2="3.2004" y2="-1.4478" width="0.1524" layer="51"/>
<wire x1="3.2004" y1="-1.4478" x2="3.2004" y2="-1.143" width="0.1524" layer="51"/>
<wire x1="3.2004" y1="-1.143" x2="2.2352" y2="-1.143" width="0.1524" layer="51"/>
<wire x1="2.2352" y1="-0.508" x2="2.2352" y2="-0.8128" width="0.1524" layer="51"/>
<wire x1="2.2352" y1="-0.8128" x2="3.2004" y2="-0.8128" width="0.1524" layer="51"/>
<wire x1="3.2004" y1="-0.8128" x2="3.2004" y2="-0.508" width="0.1524" layer="51"/>
<wire x1="3.2004" y1="-0.508" x2="2.2352" y2="-0.508" width="0.1524" layer="51"/>
<wire x1="2.2352" y1="0.1524" x2="2.2352" y2="-0.1524" width="0.1524" layer="51"/>
<wire x1="2.2352" y1="-0.1524" x2="3.2004" y2="-0.1524" width="0.1524" layer="51"/>
<wire x1="3.2004" y1="-0.1524" x2="3.2004" y2="0.1524" width="0.1524" layer="51"/>
<wire x1="3.2004" y1="0.1524" x2="2.2352" y2="0.1524" width="0.1524" layer="51"/>
<wire x1="2.2352" y1="0.8128" x2="2.2352" y2="0.508" width="0.1524" layer="51"/>
<wire x1="2.2352" y1="0.508" x2="3.2004" y2="0.508" width="0.1524" layer="51"/>
<wire x1="3.2004" y1="0.508" x2="3.2004" y2="0.8128" width="0.1524" layer="51"/>
<wire x1="3.2004" y1="0.8128" x2="2.2352" y2="0.8128" width="0.1524" layer="51"/>
<wire x1="2.2352" y1="1.4478" x2="2.2352" y2="1.143" width="0.1524" layer="51"/>
<wire x1="2.2352" y1="1.143" x2="3.2004" y2="1.143" width="0.1524" layer="51"/>
<wire x1="3.2004" y1="1.143" x2="3.2004" y2="1.4478" width="0.1524" layer="51"/>
<wire x1="3.2004" y1="1.4478" x2="2.2352" y2="1.4478" width="0.1524" layer="51"/>
<wire x1="2.2352" y1="2.1082" x2="2.2352" y2="1.8034" width="0.1524" layer="51"/>
<wire x1="2.2352" y1="1.8034" x2="3.2004" y2="1.8034" width="0.1524" layer="51"/>
<wire x1="3.2004" y1="1.8034" x2="3.2004" y2="2.1082" width="0.1524" layer="51"/>
<wire x1="3.2004" y1="2.1082" x2="2.2352" y2="2.1082" width="0.1524" layer="51"/>
<wire x1="-2.2352" y1="-2.54" x2="2.2352" y2="-2.54" width="0.1524" layer="51"/>
<wire x1="2.2352" y1="-2.54" x2="2.2352" y2="2.54" width="0.1524" layer="51"/>
<wire x1="2.2352" y1="2.54" x2="-0.3048" y2="2.54" width="0.1524" layer="51"/>
<wire x1="-0.3048" y1="2.54" x2="-2.2352" y2="2.54" width="0.1524" layer="51"/>
<wire x1="-2.2352" y1="2.54" x2="-2.2352" y2="-2.54" width="0.1524" layer="51"/>
<wire x1="-1.5748" y1="1.9558" x2="-1.7272" y2="1.9558" width="0.1524" layer="51" curve="-180"/>
<wire x1="-1.7272" y1="1.9558" x2="-1.5748" y2="1.9558" width="0.1524" layer="51" curve="-180"/>
<wire x1="0.3048" y1="2.5654" x2="-0.3048" y2="2.54" width="0" layer="51" curve="-180"/>
<wire x1="-2.2352" y1="-2.54" x2="2.2352" y2="-2.54" width="0.1524" layer="21"/>
<wire x1="2.2352" y1="2.54" x2="-0.3048" y2="2.54" width="0.1524" layer="21"/>
<wire x1="-0.3048" y1="2.54" x2="-2.2352" y2="2.54" width="0.1524" layer="21"/>
<wire x1="-1.5748" y1="1.9558" x2="-1.7272" y2="1.9558" width="0.1524" layer="21" curve="-180"/>
<wire x1="-1.7272" y1="1.9558" x2="-1.5748" y2="1.9558" width="0.1524" layer="21" curve="-180"/>
<wire x1="0.3048" y1="2.5654" x2="-0.3048" y2="2.54" width="0" layer="21" curve="-180"/>
<text x="-2.8702" y="4.445" size="1.27" layer="25" ratio="6" rot="SR0">&gt;NAME</text>
<text x="-3.4544" y="3.175" size="1.27" layer="27" ratio="6" rot="SR0">&gt;VALUE</text>
</package>
<package name="MXA14A-L">
<smd name="1" x="-2.794" y="1.9558" dx="1.1176" dy="0.3048" layer="1"/>
<smd name="2" x="-2.794" y="1.2954" dx="1.1176" dy="0.3048" layer="1"/>
<smd name="3" x="-2.794" y="0.6604" dx="1.1176" dy="0.3048" layer="1"/>
<smd name="4" x="-2.794" y="0" dx="1.1176" dy="0.3048" layer="1"/>
<smd name="5" x="-2.794" y="-0.6604" dx="1.1176" dy="0.3048" layer="1"/>
<smd name="6" x="-2.794" y="-1.2954" dx="1.1176" dy="0.3048" layer="1"/>
<smd name="7" x="-2.794" y="-1.9558" dx="1.1176" dy="0.3048" layer="1"/>
<smd name="8" x="2.794" y="-1.9558" dx="1.1176" dy="0.3048" layer="1" rot="R180"/>
<smd name="9" x="2.794" y="-1.2954" dx="1.1176" dy="0.3048" layer="1" rot="R180"/>
<smd name="10" x="2.794" y="-0.6604" dx="1.1176" dy="0.3048" layer="1" rot="R180"/>
<smd name="11" x="2.794" y="0" dx="1.1176" dy="0.3048" layer="1" rot="R180"/>
<smd name="12" x="2.794" y="0.6604" dx="1.1176" dy="0.3048" layer="1" rot="R180"/>
<smd name="13" x="2.794" y="1.2954" dx="1.1176" dy="0.3048" layer="1" rot="R180"/>
<smd name="14" x="2.794" y="1.9558" dx="1.1176" dy="0.3048" layer="1" rot="R180"/>
<smd name="GND" x="0" y="0" dx="3" dy="3.1" layer="1"/>
<wire x1="-2.2352" y1="1.8034" x2="-2.2352" y2="2.1082" width="0.1524" layer="51"/>
<wire x1="-2.2352" y1="2.1082" x2="-3.2004" y2="2.1082" width="0.1524" layer="51"/>
<wire x1="-3.2004" y1="2.1082" x2="-3.2004" y2="1.8034" width="0.1524" layer="51"/>
<wire x1="-3.2004" y1="1.8034" x2="-2.2352" y2="1.8034" width="0.1524" layer="51"/>
<wire x1="-2.2352" y1="1.143" x2="-2.2352" y2="1.4478" width="0.1524" layer="51"/>
<wire x1="-2.2352" y1="1.4478" x2="-3.2004" y2="1.4478" width="0.1524" layer="51"/>
<wire x1="-3.2004" y1="1.4478" x2="-3.2004" y2="1.143" width="0.1524" layer="51"/>
<wire x1="-3.2004" y1="1.143" x2="-2.2352" y2="1.143" width="0.1524" layer="51"/>
<wire x1="-2.2352" y1="0.508" x2="-2.2352" y2="0.8128" width="0.1524" layer="51"/>
<wire x1="-2.2352" y1="0.8128" x2="-3.2004" y2="0.8128" width="0.1524" layer="51"/>
<wire x1="-3.2004" y1="0.8128" x2="-3.2004" y2="0.508" width="0.1524" layer="51"/>
<wire x1="-3.2004" y1="0.508" x2="-2.2352" y2="0.508" width="0.1524" layer="51"/>
<wire x1="-2.2352" y1="-0.1524" x2="-2.2352" y2="0.1524" width="0.1524" layer="51"/>
<wire x1="-2.2352" y1="0.1524" x2="-3.2004" y2="0.1524" width="0.1524" layer="51"/>
<wire x1="-3.2004" y1="0.1524" x2="-3.2004" y2="-0.1524" width="0.1524" layer="51"/>
<wire x1="-3.2004" y1="-0.1524" x2="-2.2352" y2="-0.1524" width="0.1524" layer="51"/>
<wire x1="-2.2352" y1="-0.8128" x2="-2.2352" y2="-0.508" width="0.1524" layer="51"/>
<wire x1="-2.2352" y1="-0.508" x2="-3.2004" y2="-0.508" width="0.1524" layer="51"/>
<wire x1="-3.2004" y1="-0.508" x2="-3.2004" y2="-0.8128" width="0.1524" layer="51"/>
<wire x1="-3.2004" y1="-0.8128" x2="-2.2352" y2="-0.8128" width="0.1524" layer="51"/>
<wire x1="-2.2352" y1="-1.4478" x2="-2.2352" y2="-1.143" width="0.1524" layer="51"/>
<wire x1="-2.2352" y1="-1.143" x2="-3.2004" y2="-1.143" width="0.1524" layer="51"/>
<wire x1="-3.2004" y1="-1.143" x2="-3.2004" y2="-1.4478" width="0.1524" layer="51"/>
<wire x1="-3.2004" y1="-1.4478" x2="-2.2352" y2="-1.4478" width="0.1524" layer="51"/>
<wire x1="-2.2352" y1="-2.1082" x2="-2.2352" y2="-1.8034" width="0.1524" layer="51"/>
<wire x1="-2.2352" y1="-1.8034" x2="-3.2004" y2="-1.8034" width="0.1524" layer="51"/>
<wire x1="-3.2004" y1="-1.8034" x2="-3.2004" y2="-2.1082" width="0.1524" layer="51"/>
<wire x1="-3.2004" y1="-2.1082" x2="-2.2352" y2="-2.1082" width="0.1524" layer="51"/>
<wire x1="2.2352" y1="-1.8034" x2="2.2352" y2="-2.1082" width="0.1524" layer="51"/>
<wire x1="2.2352" y1="-2.1082" x2="3.2004" y2="-2.1082" width="0.1524" layer="51"/>
<wire x1="3.2004" y1="-2.1082" x2="3.2004" y2="-1.8034" width="0.1524" layer="51"/>
<wire x1="3.2004" y1="-1.8034" x2="2.2352" y2="-1.8034" width="0.1524" layer="51"/>
<wire x1="2.2352" y1="-1.143" x2="2.2352" y2="-1.4478" width="0.1524" layer="51"/>
<wire x1="2.2352" y1="-1.4478" x2="3.2004" y2="-1.4478" width="0.1524" layer="51"/>
<wire x1="3.2004" y1="-1.4478" x2="3.2004" y2="-1.143" width="0.1524" layer="51"/>
<wire x1="3.2004" y1="-1.143" x2="2.2352" y2="-1.143" width="0.1524" layer="51"/>
<wire x1="2.2352" y1="-0.508" x2="2.2352" y2="-0.8128" width="0.1524" layer="51"/>
<wire x1="2.2352" y1="-0.8128" x2="3.2004" y2="-0.8128" width="0.1524" layer="51"/>
<wire x1="3.2004" y1="-0.8128" x2="3.2004" y2="-0.508" width="0.1524" layer="51"/>
<wire x1="3.2004" y1="-0.508" x2="2.2352" y2="-0.508" width="0.1524" layer="51"/>
<wire x1="2.2352" y1="0.1524" x2="2.2352" y2="-0.1524" width="0.1524" layer="51"/>
<wire x1="2.2352" y1="-0.1524" x2="3.2004" y2="-0.1524" width="0.1524" layer="51"/>
<wire x1="3.2004" y1="-0.1524" x2="3.2004" y2="0.1524" width="0.1524" layer="51"/>
<wire x1="3.2004" y1="0.1524" x2="2.2352" y2="0.1524" width="0.1524" layer="51"/>
<wire x1="2.2352" y1="0.8128" x2="2.2352" y2="0.508" width="0.1524" layer="51"/>
<wire x1="2.2352" y1="0.508" x2="3.2004" y2="0.508" width="0.1524" layer="51"/>
<wire x1="3.2004" y1="0.508" x2="3.2004" y2="0.8128" width="0.1524" layer="51"/>
<wire x1="3.2004" y1="0.8128" x2="2.2352" y2="0.8128" width="0.1524" layer="51"/>
<wire x1="2.2352" y1="1.4478" x2="2.2352" y2="1.143" width="0.1524" layer="51"/>
<wire x1="2.2352" y1="1.143" x2="3.2004" y2="1.143" width="0.1524" layer="51"/>
<wire x1="3.2004" y1="1.143" x2="3.2004" y2="1.4478" width="0.1524" layer="51"/>
<wire x1="3.2004" y1="1.4478" x2="2.2352" y2="1.4478" width="0.1524" layer="51"/>
<wire x1="2.2352" y1="2.1082" x2="2.2352" y2="1.8034" width="0.1524" layer="51"/>
<wire x1="2.2352" y1="1.8034" x2="3.2004" y2="1.8034" width="0.1524" layer="51"/>
<wire x1="3.2004" y1="1.8034" x2="3.2004" y2="2.1082" width="0.1524" layer="51"/>
<wire x1="3.2004" y1="2.1082" x2="2.2352" y2="2.1082" width="0.1524" layer="51"/>
<wire x1="-2.2352" y1="-2.54" x2="2.2352" y2="-2.54" width="0.1524" layer="51"/>
<wire x1="2.2352" y1="-2.54" x2="2.2352" y2="2.54" width="0.1524" layer="51"/>
<wire x1="2.2352" y1="2.54" x2="-0.3048" y2="2.54" width="0.1524" layer="51"/>
<wire x1="-0.3048" y1="2.54" x2="-2.2352" y2="2.54" width="0.1524" layer="51"/>
<wire x1="-2.2352" y1="2.54" x2="-2.2352" y2="-2.54" width="0.1524" layer="51"/>
<wire x1="-1.1684" y1="1.9558" x2="-1.3208" y2="1.9558" width="0.1524" layer="51" curve="-180"/>
<wire x1="-1.3208" y1="1.9558" x2="-1.1684" y2="1.9558" width="0.1524" layer="51" curve="-180"/>
<wire x1="0.3048" y1="2.5654" x2="-0.3048" y2="2.54" width="0" layer="51" curve="-180"/>
<wire x1="-2.2352" y1="-2.54" x2="2.2352" y2="-2.54" width="0.1524" layer="21"/>
<wire x1="2.2352" y1="2.54" x2="-0.3048" y2="2.54" width="0.1524" layer="21"/>
<wire x1="-0.3048" y1="2.54" x2="-2.2352" y2="2.54" width="0.1524" layer="21"/>
<wire x1="-1.1684" y1="1.9558" x2="-1.3208" y2="1.9558" width="0.1524" layer="21" curve="-180"/>
<wire x1="-1.3208" y1="1.9558" x2="-1.1684" y2="1.9558" width="0.1524" layer="21" curve="-180"/>
<wire x1="0.3048" y1="2.5654" x2="-0.3048" y2="2.54" width="0" layer="21" curve="-180"/>
<text x="-2.8702" y="4.445" size="1.27" layer="25" ratio="6" rot="SR0">&gt;NAME</text>
<text x="-3.4544" y="3.175" size="1.27" layer="27" ratio="6" rot="SR0">&gt;VALUE</text>
</package>
</packages>
<symbols>
<symbol name="LM2852XMXA-0.8">
<pin name="AVIN" x="2.54" y="2.54" length="middle" direction="in"/>
<pin name="EN" x="2.54" y="-2.54" length="middle" direction="pas"/>
<pin name="SGND" x="2.54" y="-7.62" length="middle" direction="pas"/>
<pin name="SS" x="2.54" y="-12.7" length="middle" direction="pas"/>
<pin name="NC_2" x="2.54" y="-17.78" length="middle" direction="pas"/>
<pin name="PVIN_2" x="2.54" y="-22.86" length="middle" direction="in"/>
<pin name="PVIN" x="2.54" y="-27.94" length="middle" direction="in"/>
<pin name="SW_2" x="40.64" y="-27.94" length="middle" direction="out" rot="R180"/>
<pin name="SW" x="40.64" y="-22.86" length="middle" direction="out" rot="R180"/>
<pin name="PGND_2" x="40.64" y="-17.78" length="middle" direction="pas" rot="R180"/>
<pin name="PGND" x="40.64" y="-12.7" length="middle" direction="pas" rot="R180"/>
<pin name="NC_3" x="40.64" y="-7.62" length="middle" direction="pas" rot="R180"/>
<pin name="NC" x="40.64" y="-2.54" length="middle" direction="pas" rot="R180"/>
<pin name="SNS" x="40.64" y="2.54" length="middle" direction="pas" rot="R180"/>
<pin name="GND_PAD" x="20.32" y="-35.56" length="middle" direction="pas" rot="R90"/>
<wire x1="7.62" y1="5.08" x2="7.62" y2="-30.48" width="0.1524" layer="94"/>
<wire x1="7.62" y1="-30.48" x2="35.56" y2="-30.48" width="0.1524" layer="94"/>
<wire x1="35.56" y1="-30.48" x2="35.56" y2="5.08" width="0.1524" layer="94"/>
<wire x1="35.56" y1="5.08" x2="7.62" y2="5.08" width="0.1524" layer="94"/>
<text x="16.8656" y="9.1186" size="2.0828" layer="95" ratio="6" rot="SR0">&gt;NAME</text>
<text x="15.9258" y="6.5786" size="2.0828" layer="96" ratio="6" rot="SR0">&gt;VALUE</text>
</symbol>
</symbols>
<devicesets>
<deviceset name="LM2852_PWP_14" prefix="U">
<gates>
<gate name="A" symbol="LM2852XMXA-0.8" x="0" y="0"/>
</gates>
<devices>
<device name="" package="MXA14A">
<connects>
<connect gate="A" pin="AVIN" pad="1"/>
<connect gate="A" pin="EN" pad="2"/>
<connect gate="A" pin="GND_PAD" pad="GND"/>
<connect gate="A" pin="NC" pad="13"/>
<connect gate="A" pin="NC_2" pad="5"/>
<connect gate="A" pin="NC_3" pad="12"/>
<connect gate="A" pin="PGND" pad="11"/>
<connect gate="A" pin="PGND_2" pad="10"/>
<connect gate="A" pin="PVIN" pad="7"/>
<connect gate="A" pin="PVIN_2" pad="6"/>
<connect gate="A" pin="SGND" pad="3"/>
<connect gate="A" pin="SNS" pad="14"/>
<connect gate="A" pin="SS" pad="4"/>
<connect gate="A" pin="SW" pad="9"/>
<connect gate="A" pin="SW_2" pad="8"/>
</connects>
<technologies>
<technology name="">
<attribute name="BASE_PN" value="LM2852" constant="no"/>
<attribute name="COMPTYPE" value="Switcher" constant="no"/>
<attribute name="PARTNUMBER" value="LM2852XMXA-08" constant="no"/>
<attribute name="SYMBOL" value="NameLM2852XMXA-08" constant="no"/>
<attribute name="TYPE" value="LM2852XMXA-0.8" constant="no"/>
<attribute name="VENDOR" value="NationalSemiconductor" constant="no"/>
<attribute name="VERSION" value="05/02/2007" constant="no"/>
</technology>
</technologies>
</device>
</devices>
</deviceset>
</devicesets>
</library>
</drawing>
</eagle>
