<?xml version="1.0" encoding="utf-8"?>
<!DOCTYPE eagle SYSTEM "eagle.dtd">
<eagle version="6.4">
<drawing>
<settings>
<setting alwaysvectorfont="no"/>
<setting verticaltext="up"/>
</settings>
<grid distance="0.1" unitdist="inch" unit="inch" style="lines" multiple="1" display="no" altdistance="0.01" altunitdist="inch" altunit="inch"/>
<layers>
<layer number="1" name="Top" color="4" fill="1" visible="yes" active="yes"/>
<layer number="16" name="Bottom" color="1" fill="1" visible="yes" active="yes"/>
<layer number="17" name="Pads" color="2" fill="1" visible="yes" active="yes"/>
<layer number="18" name="Vias" color="2" fill="1" visible="yes" active="yes"/>
<layer number="19" name="Unrouted" color="6" fill="1" visible="yes" active="yes"/>
<layer number="20" name="Dimension" color="15" fill="1" visible="yes" active="yes"/>
<layer number="21" name="tPlace" color="7" fill="1" visible="yes" active="yes"/>
<layer number="22" name="bPlace" color="7" fill="1" visible="yes" active="yes"/>
<layer number="23" name="tOrigins" color="15" fill="1" visible="yes" active="yes"/>
<layer number="24" name="bOrigins" color="15" fill="1" visible="yes" active="yes"/>
<layer number="25" name="tNames" color="7" fill="1" visible="yes" active="yes"/>
<layer number="26" name="bNames" color="7" fill="1" visible="yes" active="yes"/>
<layer number="27" name="tValues" color="7" fill="1" visible="yes" active="yes"/>
<layer number="28" name="bValues" color="7" fill="1" visible="yes" active="yes"/>
<layer number="29" name="tStop" color="7" fill="3" visible="no" active="yes"/>
<layer number="30" name="bStop" color="7" fill="6" visible="no" active="yes"/>
<layer number="31" name="tCream" color="7" fill="4" visible="no" active="yes"/>
<layer number="32" name="bCream" color="7" fill="5" visible="no" active="yes"/>
<layer number="33" name="tFinish" color="6" fill="3" visible="no" active="yes"/>
<layer number="34" name="bFinish" color="6" fill="6" visible="no" active="yes"/>
<layer number="35" name="tGlue" color="7" fill="4" visible="no" active="yes"/>
<layer number="36" name="bGlue" color="7" fill="5" visible="no" active="yes"/>
<layer number="37" name="tTest" color="7" fill="1" visible="no" active="yes"/>
<layer number="38" name="bTest" color="7" fill="1" visible="no" active="yes"/>
<layer number="39" name="tKeepout" color="4" fill="11" visible="yes" active="yes"/>
<layer number="40" name="bKeepout" color="1" fill="11" visible="yes" active="yes"/>
<layer number="41" name="tRestrict" color="4" fill="10" visible="yes" active="yes"/>
<layer number="42" name="bRestrict" color="1" fill="10" visible="yes" active="yes"/>
<layer number="43" name="vRestrict" color="2" fill="10" visible="yes" active="yes"/>
<layer number="44" name="Drills" color="7" fill="1" visible="no" active="yes"/>
<layer number="45" name="Holes" color="7" fill="1" visible="yes" active="yes"/>
<layer number="46" name="Milling" color="3" fill="1" visible="no" active="yes"/>
<layer number="47" name="Measures" color="7" fill="1" visible="no" active="yes"/>
<layer number="48" name="Document" color="7" fill="1" visible="yes" active="yes"/>
<layer number="49" name="Reference" color="7" fill="1" visible="yes" active="yes"/>
<layer number="51" name="tDocu" color="7" fill="1" visible="yes" active="yes"/>
<layer number="52" name="bDocu" color="7" fill="1" visible="yes" active="yes"/>
<layer number="91" name="Nets" color="2" fill="1" visible="yes" active="yes"/>
<layer number="92" name="Busses" color="1" fill="1" visible="yes" active="yes"/>
<layer number="93" name="Pins" color="2" fill="1" visible="yes" active="yes"/>
<layer number="94" name="Symbols" color="4" fill="1" visible="yes" active="yes"/>
<layer number="95" name="Names" color="7" fill="1" visible="yes" active="yes"/>
<layer number="96" name="Values" color="7" fill="1" visible="yes" active="yes"/>
<layer number="97" name="Info" color="7" fill="1" visible="yes" active="yes"/>
<layer number="98" name="Guide" color="6" fill="1" visible="yes" active="yes"/>
</layers>
<library>
<packages>
<package name="LBGA300">
<wire x1="-9.5" y1="9.5" x2="-8.75" y2="9.5" width="0.2" layer="21"/>
<wire x1="-8.75" y1="9.5" x2="9.5" y2="9.5" width="0.2" layer="21"/>
<wire x1="-9.5" y1="9.5" x2="-9.5" y2="8.75" width="0.2" layer="21"/>
<wire x1="-9.5" y1="8.75" x2="-9.5" y2="-9.5" width="0.2" layer="21"/>
<wire x1="-9.5" y1="-9.5" x2="9.5" y2="-9.5" width="0.2" layer="21"/>
<wire x1="9.5" y1="9.5" x2="9.5" y2="-9.5" width="0.2" layer="21"/>
<circle x="-9.8" y="8.5" radius="0.1" width="0.2" layer="21"/>
<wire x1="-10.4" y1="10.4" x2="10.4" y2="10.4" width="0.2" layer="39"/>
<wire x1="-10.4" y1="10.4" x2="-10.4" y2="-10.4" width="0.2" layer="39"/>
<wire x1="-10.4" y1="-10.4" x2="10.4" y2="-10.4" width="0.2" layer="39"/>
<wire x1="10.4" y1="10.4" x2="10.4" y2="-10.4" width="0.2" layer="39"/>
<smd name="DQ0" x="-8.5" y="8.5" dx="0.5" dy="0.5" layer="1" roundness="100"/>
<smd name="DQ1" x="-7.5" y="8.5" dx="0.5" dy="0.5" layer="1" roundness="100"/>
<smd name="L4IN_0" x="-6.5" y="8.5" dx="0.5" dy="0.5" layer="1" roundness="100"/>
<smd name="L4IN_1" x="-5.5" y="8.5" dx="0.5" dy="0.5" layer="1" roundness="100"/>
<smd name="L4IN_4" x="-4.5" y="8.5" dx="0.5" dy="0.5" layer="1" roundness="100"/>
<smd name="L4OUT_0" x="-3.5" y="8.5" dx="0.5" dy="0.5" layer="1" roundness="100"/>
<smd name="L4OUT_4" x="-2.5" y="8.5" dx="0.5" dy="0.5" layer="1" roundness="100"/>
<smd name="L3IN_0" x="-1.5" y="8.5" dx="0.5" dy="0.5" layer="1" roundness="100"/>
<smd name="L3IN_4" x="-0.5" y="8.5" dx="0.5" dy="0.5" layer="1" roundness="100"/>
<smd name="L3OUT_0" x="0.5" y="8.5" dx="0.5" dy="0.5" layer="1" roundness="100"/>
<smd name="L3OUT_4" x="1.5" y="8.5" dx="0.5" dy="0.5" layer="1" roundness="100"/>
<smd name="MDIO" x="2.5" y="8.5" dx="0.5" dy="0.5" layer="1" roundness="100"/>
<smd name="TX_D_3" x="3.5" y="8.5" dx="0.5" dy="0.5" layer="1" roundness="100"/>
<smd name="TX_CLK" x="4.5" y="8.5" dx="0.5" dy="0.5" layer="1" roundness="100"/>
<smd name="RX_D_3" x="5.5" y="8.5" dx="0.5" dy="0.5" layer="1" roundness="100"/>
<smd name="RX_D_1" x="6.5" y="8.5" dx="0.5" dy="0.5" layer="1" roundness="100"/>
<smd name="RX_D_0" x="7.5" y="8.5" dx="0.5" dy="0.5" layer="1" roundness="100"/>
<smd name="RX_CLK" x="8.5" y="8.5" dx="0.5" dy="0.5" layer="1" roundness="100"/>
<smd name="DQ2" x="-8.5" y="7.5" dx="0.5" dy="0.5" layer="1" roundness="100"/>
<smd name="DQ3" x="-7.5" y="7.5" dx="0.5" dy="0.5" layer="1" roundness="100"/>
<smd name="DQ4" x="-6.5" y="7.5" dx="0.5" dy="0.5" layer="1" roundness="100"/>
<smd name="L4IN_2" x="-5.5" y="7.5" dx="0.5" dy="0.5" layer="1" roundness="100"/>
<smd name="L4IN_5" x="-4.5" y="7.5" dx="0.5" dy="0.5" layer="1" roundness="100"/>
<smd name="L4OUT_1" x="-3.5" y="7.5" dx="0.5" dy="0.5" layer="1" roundness="100"/>
<smd name="L4OUT_5" x="-2.5" y="7.5" dx="0.5" dy="0.5" layer="1" roundness="100"/>
<smd name="L3IN_1" x="-1.5" y="7.5" dx="0.5" dy="0.5" layer="1" roundness="100"/>
<smd name="L3IN_5" x="-0.5" y="7.5" dx="0.5" dy="0.5" layer="1" roundness="100"/>
<smd name="L3OUT_1" x="0.5" y="7.5" dx="0.5" dy="0.5" layer="1" roundness="100"/>
<smd name="L3OUT_5" x="1.5" y="7.5" dx="0.5" dy="0.5" layer="1" roundness="100"/>
<smd name="PHY_RST" x="2.5" y="7.5" dx="0.5" dy="0.5" layer="1" roundness="100"/>
<smd name="TX_EN" x="3.5" y="7.5" dx="0.5" dy="0.5" layer="1" roundness="100"/>
<smd name="TX_D_0" x="4.5" y="7.5" dx="0.5" dy="0.5" layer="1" roundness="100"/>
<smd name="RX_DV" x="5.5" y="7.5" dx="0.5" dy="0.5" layer="1" roundness="100"/>
<smd name="RX_D_2" x="6.5" y="7.5" dx="0.5" dy="0.5" layer="1" roundness="100"/>
<smd name="RTCK" x="7.5" y="7.5" dx="0.5" dy="0.5" layer="1" roundness="100"/>
<smd name="TDO" x="8.5" y="7.5" dx="0.5" dy="0.5" layer="1" roundness="100"/>
<smd name="DQ5" x="-8.5" y="6.5" dx="0.5" dy="0.5" layer="1" roundness="100"/>
<smd name="DQ6" x="-7.5" y="6.5" dx="0.5" dy="0.5" layer="1" roundness="100"/>
<smd name="DQ7" x="-6.5" y="6.5" dx="0.5" dy="0.5" layer="1" roundness="100"/>
<smd name="L4IN_3" x="-5.5" y="6.5" dx="0.5" dy="0.5" layer="1" roundness="100"/>
<smd name="L4IN_6" x="-4.5" y="6.5" dx="0.5" dy="0.5" layer="1" roundness="100"/>
<smd name="L4OUT_2" x="-3.5" y="6.5" dx="0.5" dy="0.5" layer="1" roundness="100"/>
<smd name="L4OUT_6" x="-2.5" y="6.5" dx="0.5" dy="0.5" layer="1" roundness="100"/>
<smd name="L3IN_2" x="-1.5" y="6.5" dx="0.5" dy="0.5" layer="1" roundness="100"/>
<smd name="L3IN_6" x="-0.5" y="6.5" dx="0.5" dy="0.5" layer="1" roundness="100"/>
<smd name="L3OUT_2" x="0.5" y="6.5" dx="0.5" dy="0.5" layer="1" roundness="100"/>
<smd name="L3OUT_6" x="1.5" y="6.5" dx="0.5" dy="0.5" layer="1" roundness="100"/>
<smd name="PHY_IRQ" x="2.5" y="6.5" dx="0.5" dy="0.5" layer="1" roundness="100"/>
<smd name="TX_ERR" x="3.5" y="6.5" dx="0.5" dy="0.5" layer="1" roundness="100"/>
<smd name="TX_D_1" x="4.5" y="6.5" dx="0.5" dy="0.5" layer="1" roundness="100"/>
<smd name="RX_ERR" x="5.5" y="6.5" dx="0.5" dy="0.5" layer="1" roundness="100"/>
<smd name="TDI" x="6.5" y="6.5" dx="0.5" dy="0.5" layer="1" roundness="100"/>
<smd name="TMS" x="7.5" y="6.5" dx="0.5" dy="0.5" layer="1" roundness="100"/>
<smd name="TCK" x="8.5" y="6.5" dx="0.5" dy="0.5" layer="1" roundness="100"/>
<smd name="DQS0" x="-8.5" y="5.5" dx="0.5" dy="0.5" layer="1" roundness="100"/>
<smd name="DM0" x="-7.5" y="5.5" dx="0.5" dy="0.5" layer="1" roundness="100"/>
<smd name="DQ8" x="-6.5" y="5.5" dx="0.5" dy="0.5" layer="1" roundness="100"/>
<smd name="DQ9" x="-5.5" y="5.5" dx="0.5" dy="0.5" layer="1" roundness="100"/>
<smd name="L4IN_A" x="-4.5" y="5.5" dx="0.5" dy="0.5" layer="1" roundness="100"/>
<smd name="L4OUT_3" x="-3.5" y="5.5" dx="0.5" dy="0.5" layer="1" roundness="100"/>
<smd name="L4OUT_A" x="-2.5" y="5.5" dx="0.5" dy="0.5" layer="1" roundness="100"/>
<smd name="L3IN_3" x="-1.5" y="5.5" dx="0.5" dy="0.5" layer="1" roundness="100"/>
<smd name="L3IN_A" x="-0.5" y="5.5" dx="0.5" dy="0.5" layer="1" roundness="100"/>
<smd name="L3OUT_3" x="0.5" y="5.5" dx="0.5" dy="0.5" layer="1" roundness="100"/>
<smd name="L3OUT_A" x="1.5" y="5.5" dx="0.5" dy="0.5" layer="1" roundness="100"/>
<smd name="ETHERMUX" x="2.5" y="5.5" dx="0.5" dy="0.5" layer="1" roundness="100"/>
<smd name="MDC" x="3.5" y="5.5" dx="0.5" dy="0.5" layer="1" roundness="100"/>
<smd name="TX_D_2" x="4.5" y="5.5" dx="0.5" dy="0.5" layer="1" roundness="100"/>
<smd name="TRST" x="6.5" y="5.5" dx="0.5" dy="0.5" layer="1" roundness="100"/>
<smd name="GPIO_15" x="7.5" y="5.5" dx="0.5" dy="0.5" layer="1" roundness="100"/>
<smd name="GPIO_14" x="8.5" y="5.5" dx="0.5" dy="0.5" layer="1" roundness="100"/>
<smd name="DQ10" x="-8.5" y="4.5" dx="0.5" dy="0.5" layer="1" roundness="100"/>
<smd name="DQ11" x="-7.5" y="4.5" dx="0.5" dy="0.5" layer="1" roundness="100"/>
<smd name="DQ12" x="-6.5" y="4.5" dx="0.5" dy="0.5" layer="1" roundness="100"/>
<smd name="DQ13" x="-5.5" y="4.5" dx="0.5" dy="0.5" layer="1" roundness="100"/>
<smd name="VDD18_0" x="-4.5" y="4.5" dx="0.5" dy="0.5" layer="1" roundness="100"/>
<smd name="VDD18_1" x="-3.5" y="4.5" dx="0.5" dy="0.5" layer="1" roundness="100"/>
<smd name="VDD18_2" x="-2.5" y="4.5" dx="0.5" dy="0.5" layer="1" roundness="100"/>
<smd name="VDD18_3" x="-1.5" y="4.5" dx="0.5" dy="0.5" layer="1" roundness="100"/>
<smd name="VSS_36" x="-0.5" y="4.5" dx="0.5" dy="0.5" layer="1" roundness="100"/>
<smd name="VDD12_8" x="0.5" y="4.5" dx="0.5" dy="0.5" layer="1" roundness="100"/>
<smd name="VSS_32" x="1.5" y="4.5" dx="0.5" dy="0.5" layer="1" roundness="100"/>
<smd name="VSS_33" x="2.5" y="4.5" dx="0.5" dy="0.5" layer="1" roundness="100"/>
<smd name="VSS_34" x="3.5" y="4.5" dx="0.5" dy="0.5" layer="1" roundness="100"/>
<smd name="VSS_35" x="4.5" y="4.5" dx="0.5" dy="0.5" layer="1" roundness="100"/>
<smd name="GPIO_13" x="6.5" y="4.5" dx="0.5" dy="0.5" layer="1" roundness="100"/>
<smd name="GPIO_12" x="7.5" y="4.5" dx="0.5" dy="0.5" layer="1" roundness="100"/>
<smd name="GPIO_11" x="8.5" y="4.5" dx="0.5" dy="0.5" layer="1" roundness="100"/>
<smd name="DQ14" x="-8.5" y="3.5" dx="0.5" dy="0.5" layer="1" roundness="100"/>
<smd name="DQ15" x="-7.5" y="3.5" dx="0.5" dy="0.5" layer="1" roundness="100"/>
<smd name="DQS1" x="-6.5" y="3.5" dx="0.5" dy="0.5" layer="1" roundness="100"/>
<smd name="DM1" x="-5.5" y="3.5" dx="0.5" dy="0.5" layer="1" roundness="100"/>
<smd name="VDD18_4" x="-4.5" y="3.5" dx="0.5" dy="0.5" layer="1" roundness="100"/>
<smd name="VDD18_5" x="-3.5" y="3.5" dx="0.5" dy="0.5" layer="1" roundness="100"/>
<smd name="VDD18_6" x="-2.5" y="3.5" dx="0.5" dy="0.5" layer="1" roundness="100"/>
<smd name="VDD18_7" x="-1.5" y="3.5" dx="0.5" dy="0.5" layer="1" roundness="100"/>
<smd name="VSS_37" x="-0.5" y="3.5" dx="0.5" dy="0.5" layer="1" roundness="100"/>
<smd name="VDD12_9" x="0.5" y="3.5" dx="0.5" dy="0.5" layer="1" roundness="100"/>
<smd name="VSS_28" x="1.5" y="3.5" dx="0.5" dy="0.5" layer="1" roundness="100"/>
<smd name="VSS_29" x="2.5" y="3.5" dx="0.5" dy="0.5" layer="1" roundness="100"/>
<smd name="VSS_30" x="3.5" y="3.5" dx="0.5" dy="0.5" layer="1" roundness="100"/>
<smd name="VSS_31" x="4.5" y="3.5" dx="0.5" dy="0.5" layer="1" roundness="100"/>
<smd name="GPIO_10" x="6.5" y="3.5" dx="0.5" dy="0.5" layer="1" roundness="100"/>
<smd name="GPIO_9" x="7.5" y="3.5" dx="0.5" dy="0.5" layer="1" roundness="100"/>
<smd name="GPIO_8" x="8.5" y="3.5" dx="0.5" dy="0.5" layer="1" roundness="100"/>
<smd name="BA1" x="-8.5" y="2.5" dx="0.5" dy="0.5" layer="1" roundness="100"/>
<smd name="BA0" x="-7.5" y="2.5" dx="0.5" dy="0.5" layer="1" roundness="100"/>
<smd name="A2" x="-6.5" y="2.5" dx="0.5" dy="0.5" layer="1" roundness="100"/>
<smd name="A4" x="-5.5" y="2.5" dx="0.5" dy="0.5" layer="1" roundness="100"/>
<smd name="VDD18_8" x="-4.5" y="2.5" dx="0.5" dy="0.5" layer="1" roundness="100"/>
<smd name="VDD18_9" x="-3.5" y="2.5" dx="0.5" dy="0.5" layer="1" roundness="100"/>
<smd name="VDD18_10" x="-2.5" y="2.5" dx="0.5" dy="0.5" layer="1" roundness="100"/>
<smd name="VSS_25" x="2.5" y="2.5" dx="0.5" dy="0.5" layer="1" roundness="100"/>
<smd name="VSS_26" x="3.5" y="2.5" dx="0.5" dy="0.5" layer="1" roundness="100"/>
<smd name="VSS_27" x="4.5" y="2.5" dx="0.5" dy="0.5" layer="1" roundness="100"/>
<smd name="CLK32KIN" x="5.5" y="2.5" dx="0.5" dy="0.5" layer="1" roundness="100"/>
<smd name="CLK10MOUT" x="6.5" y="2.5" dx="0.5" dy="0.5" layer="1" roundness="100"/>
<smd name="CLK10MIN" x="7.5" y="2.5" dx="0.5" dy="0.5" layer="1" roundness="100"/>
<smd name="TEST" x="8.5" y="2.5" dx="0.5" dy="0.5" layer="1" roundness="100"/>
<smd name="A6" x="-8.5" y="1.5" dx="0.5" dy="0.5" layer="1" roundness="100"/>
<smd name="A8" x="-7.5" y="1.5" dx="0.5" dy="0.5" layer="1" roundness="100"/>
<smd name="A10" x="-6.5" y="1.5" dx="0.5" dy="0.5" layer="1" roundness="100"/>
<smd name="A12" x="-5.5" y="1.5" dx="0.5" dy="0.5" layer="1" roundness="100"/>
<smd name="VSS_0" x="-4.5" y="1.5" dx="0.5" dy="0.5" layer="1" roundness="100"/>
<smd name="VSS_1" x="-3.5" y="1.5" dx="0.5" dy="0.5" layer="1" roundness="100"/>
<smd name="VSS_2" x="-2.5" y="1.5" dx="0.5" dy="0.5" layer="1" roundness="100"/>
<smd name="VDD18_25" x="2.5" y="1.5" dx="0.5" dy="0.5" layer="1" roundness="100"/>
<smd name="VDD18_26" x="3.5" y="1.5" dx="0.5" dy="0.5" layer="1" roundness="100"/>
<smd name="VDD18_27" x="4.5" y="1.5" dx="0.5" dy="0.5" layer="1" roundness="100"/>
<smd name="POR" x="5.5" y="1.5" dx="0.5" dy="0.5" layer="1" roundness="100"/>
<smd name="RESET" x="6.5" y="1.5" dx="0.5" dy="0.5" layer="1" roundness="100"/>
<smd name="VSS_PLL_2" x="7.5" y="1.5" dx="0.5" dy="0.5" layer="1" roundness="100"/>
<smd name="VSS_PLL_3" x="8.5" y="1.5" dx="0.5" dy="0.5" layer="1" roundness="100"/>
<smd name="CK#" x="-8.5" y="0.5" dx="0.5" dy="0.5" layer="1" roundness="100"/>
<smd name="CK" x="-7.5" y="0.5" dx="0.5" dy="0.5" layer="1" roundness="100"/>
<smd name="CS#" x="-6.5" y="0.5" dx="0.5" dy="0.5" layer="1" roundness="100"/>
<smd name="CS1#" x="-5.5" y="0.5" dx="0.5" dy="0.5" layer="1" roundness="100"/>
<smd name="VDD12_0" x="-4.5" y="0.5" dx="0.5" dy="0.5" layer="1" roundness="100"/>
<smd name="VDD12_1" x="-3.5" y="0.5" dx="0.5" dy="0.5" layer="1" roundness="100"/>
<smd name="VDD12_2" x="-2.5" y="0.5" dx="0.5" dy="0.5" layer="1" roundness="100"/>
<smd name="VSS_22" x="2.5" y="0.5" dx="0.5" dy="0.5" layer="1" roundness="100"/>
<smd name="VSS_23" x="3.5" y="0.5" dx="0.5" dy="0.5" layer="1" roundness="100"/>
<smd name="VSS_24" x="4.5" y="0.5" dx="0.5" dy="0.5" layer="1" roundness="100"/>
<smd name="TRES" x="6.5" y="0.5" dx="0.5" dy="0.5" layer="1" roundness="100"/>
<smd name="VDD_PLL_2" x="7.5" y="0.5" dx="0.5" dy="0.5" layer="1" roundness="100"/>
<smd name="VDD_PLL_3" x="8.5" y="0.5" dx="0.5" dy="0.5" layer="1" roundness="100"/>
<smd name="A13" x="-8.5" y="-0.5" dx="0.5" dy="0.5" layer="1" roundness="100"/>
<smd name="A0" x="-7.5" y="-0.5" dx="0.5" dy="0.5" layer="1" roundness="100"/>
<smd name="A11" x="-6.5" y="-0.5" dx="0.5" dy="0.5" layer="1" roundness="100"/>
<smd name="A9" x="-5.5" y="-0.5" dx="0.5" dy="0.5" layer="1" roundness="100"/>
<smd name="VSS_3" x="-4.5" y="-0.5" dx="0.5" dy="0.5" layer="1" roundness="100"/>
<smd name="VSS_4" x="-3.5" y="-0.5" dx="0.5" dy="0.5" layer="1" roundness="100"/>
<smd name="VSS_5" x="-2.5" y="-0.5" dx="0.5" dy="0.5" layer="1" roundness="100"/>
<smd name="VDD12_5" x="2.5" y="-0.5" dx="0.5" dy="0.5" layer="1" roundness="100"/>
<smd name="VDD12_6" x="3.5" y="-0.5" dx="0.5" dy="0.5" layer="1" roundness="100"/>
<smd name="VDD12_7" x="4.5" y="-0.5" dx="0.5" dy="0.5" layer="1" roundness="100"/>
<smd name="GPIO_7" x="5.5" y="-0.5" dx="0.5" dy="0.5" layer="1" roundness="100"/>
<smd name="GPIO_6" x="6.5" y="-0.5" dx="0.5" dy="0.5" layer="1" roundness="100"/>
<smd name="GPIO_5" x="7.5" y="-0.5" dx="0.5" dy="0.5" layer="1" roundness="100"/>
<smd name="GPIO_4" x="8.5" y="-0.5" dx="0.5" dy="0.5" layer="1" roundness="100"/>
<smd name="A7" x="-8.5" y="-1.5" dx="0.5" dy="0.5" layer="1" roundness="100"/>
<smd name="A5" x="-7.5" y="-1.5" dx="0.5" dy="0.5" layer="1" roundness="100"/>
<smd name="A3" x="-6.5" y="-1.5" dx="0.5" dy="0.5" layer="1" roundness="100"/>
<smd name="A1" x="-5.5" y="-1.5" dx="0.5" dy="0.5" layer="1" roundness="100"/>
<smd name="VDD18_11" x="-4.5" y="-1.5" dx="0.5" dy="0.5" layer="1" roundness="100"/>
<smd name="VDD18_12" x="-3.5" y="-1.5" dx="0.5" dy="0.5" layer="1" roundness="100"/>
<smd name="VDD18_13" x="-2.5" y="-1.5" dx="0.5" dy="0.5" layer="1" roundness="100"/>
<smd name="VSS_19" x="2.5" y="-1.5" dx="0.5" dy="0.5" layer="1" roundness="100"/>
<smd name="VSS_20" x="3.5" y="-1.5" dx="0.5" dy="0.5" layer="1" roundness="100"/>
<smd name="VSS_21" x="4.5" y="-1.5" dx="0.5" dy="0.5" layer="1" roundness="100"/>
<smd name="GPIO_3" x="5.5" y="-1.5" dx="0.5" dy="0.5" layer="1" roundness="100"/>
<smd name="GPIO_2" x="6.5" y="-1.5" dx="0.5" dy="0.5" layer="1" roundness="100"/>
<smd name="VSS_PLL_0" x="7.5" y="-1.5" dx="0.5" dy="0.5" layer="1" roundness="100"/>
<smd name="VSS_PLL_1" x="8.5" y="-1.5" dx="0.5" dy="0.5" layer="1" roundness="100"/>
<smd name="RAS#" x="-8.5" y="-2.5" dx="0.5" dy="0.5" layer="1" roundness="100"/>
<smd name="CAS#" x="-7.5" y="-2.5" dx="0.5" dy="0.5" layer="1" roundness="100"/>
<smd name="WE#" x="-6.5" y="-2.5" dx="0.5" dy="0.5" layer="1" roundness="100"/>
<smd name="CKE" x="-5.5" y="-2.5" dx="0.5" dy="0.5" layer="1" roundness="100"/>
<smd name="VSS_6" x="-4.5" y="-2.5" dx="0.5" dy="0.5" layer="1" roundness="100"/>
<smd name="VSS_7" x="-3.5" y="-2.5" dx="0.5" dy="0.5" layer="1" roundness="100"/>
<smd name="VSS_8" x="-2.5" y="-2.5" dx="0.5" dy="0.5" layer="1" roundness="100"/>
<smd name="VDD18_22" x="2.5" y="-2.5" dx="0.5" dy="0.5" layer="1" roundness="100"/>
<smd name="VDD18_23" x="3.5" y="-2.5" dx="0.5" dy="0.5" layer="1" roundness="100"/>
<smd name="VDD18_24" x="4.5" y="-2.5" dx="0.5" dy="0.5" layer="1" roundness="100"/>
<smd name="GPIO_1" x="5.5" y="-2.5" dx="0.5" dy="0.5" layer="1" roundness="100"/>
<smd name="GPIO_0" x="6.5" y="-2.5" dx="0.5" dy="0.5" layer="1" roundness="100"/>
<smd name="VDD_PLL_0" x="7.5" y="-2.5" dx="0.5" dy="0.5" layer="1" roundness="100"/>
<smd name="VDD_PLL_1" x="8.5" y="-2.5" dx="0.5" dy="0.5" layer="1" roundness="100"/>
<smd name="DM2" x="-8.5" y="-3.5" dx="0.5" dy="0.5" layer="1" roundness="100"/>
<smd name="DQS2" x="-7.5" y="-3.5" dx="0.5" dy="0.5" layer="1" roundness="100"/>
<smd name="DQ16" x="-6.5" y="-3.5" dx="0.5" dy="0.5" layer="1" roundness="100"/>
<smd name="DQ17" x="-5.5" y="-3.5" dx="0.5" dy="0.5" layer="1" roundness="100"/>
<smd name="VSS_9" x="-4.5" y="-3.5" dx="0.5" dy="0.5" layer="1" roundness="100"/>
<smd name="VSS_10" x="-3.5" y="-3.5" dx="0.5" dy="0.5" layer="1" roundness="100"/>
<smd name="VSS_11" x="-2.5" y="-3.5" dx="0.5" dy="0.5" layer="1" roundness="100"/>
<smd name="VSS_12" x="-1.5" y="-3.5" dx="0.5" dy="0.5" layer="1" roundness="100"/>
<smd name="VDD12_3" x="-0.5" y="-3.5" dx="0.5" dy="0.5" layer="1" roundness="100"/>
<smd name="VSS_18" x="0.5" y="-3.5" dx="0.5" dy="0.5" layer="1" roundness="100"/>
<smd name="VDD18_18" x="1.5" y="-3.5" dx="0.5" dy="0.5" layer="1" roundness="100"/>
<smd name="VDD18_19" x="2.5" y="-3.5" dx="0.5" dy="0.5" layer="1" roundness="100"/>
<smd name="VDD18_20" x="3.5" y="-3.5" dx="0.5" dy="0.5" layer="1" roundness="100"/>
<smd name="VDD18_21" x="4.5" y="-3.5" dx="0.5" dy="0.5" layer="1" roundness="100"/>
<smd name="L2IN_0" x="5.5" y="-3.5" dx="0.5" dy="0.5" layer="1" roundness="100"/>
<smd name="L2IN_1" x="6.5" y="-3.5" dx="0.5" dy="0.5" layer="1" roundness="100"/>
<smd name="L2IN_2" x="7.5" y="-3.5" dx="0.5" dy="0.5" layer="1" roundness="100"/>
<smd name="L2IN_3" x="8.5" y="-3.5" dx="0.5" dy="0.5" layer="1" roundness="100"/>
<smd name="DQ18" x="-8.5" y="-4.5" dx="0.5" dy="0.5" layer="1" roundness="100"/>
<smd name="DQ19" x="-7.5" y="-4.5" dx="0.5" dy="0.5" layer="1" roundness="100"/>
<smd name="DQ20" x="-6.5" y="-4.5" dx="0.5" dy="0.5" layer="1" roundness="100"/>
<smd name="DQ21" x="-5.5" y="-4.5" dx="0.5" dy="0.5" layer="1" roundness="100"/>
<smd name="VSS_13" x="-4.5" y="-4.5" dx="0.5" dy="0.5" layer="1" roundness="100"/>
<smd name="VSS_14" x="-3.5" y="-4.5" dx="0.5" dy="0.5" layer="1" roundness="100"/>
<smd name="VSS_15" x="-2.5" y="-4.5" dx="0.5" dy="0.5" layer="1" roundness="100"/>
<smd name="VSS_16" x="-1.5" y="-4.5" dx="0.5" dy="0.5" layer="1" roundness="100"/>
<smd name="VDD12_4" x="-0.5" y="-4.5" dx="0.5" dy="0.5" layer="1" roundness="100"/>
<smd name="VSS_17" x="0.5" y="-4.5" dx="0.5" dy="0.5" layer="1" roundness="100"/>
<smd name="VDD18_14" x="1.5" y="-4.5" dx="0.5" dy="0.5" layer="1" roundness="100"/>
<smd name="VDD18_15" x="2.5" y="-4.5" dx="0.5" dy="0.5" layer="1" roundness="100"/>
<smd name="VDD18_16" x="3.5" y="-4.5" dx="0.5" dy="0.5" layer="1" roundness="100"/>
<smd name="VDD18_17" x="4.5" y="-4.5" dx="0.5" dy="0.5" layer="1" roundness="100"/>
<smd name="L2IN_4" x="6.5" y="-4.5" dx="0.5" dy="0.5" layer="1" roundness="100"/>
<smd name="L2IN_5" x="7.5" y="-4.5" dx="0.5" dy="0.5" layer="1" roundness="100"/>
<smd name="L2IN_6" x="8.5" y="-4.5" dx="0.5" dy="0.5" layer="1" roundness="100"/>
<smd name="DQ22" x="-8.5" y="-5.5" dx="0.5" dy="0.5" layer="1" roundness="100"/>
<smd name="DQ23" x="-7.5" y="-5.5" dx="0.5" dy="0.5" layer="1" roundness="100"/>
<smd name="DM3" x="-6.5" y="-5.5" dx="0.5" dy="0.5" layer="1" roundness="100"/>
<smd name="DQS3" x="-5.5" y="-5.5" dx="0.5" dy="0.5" layer="1" roundness="100"/>
<smd name="L5OUT_A" x="-4.5" y="-5.5" dx="0.5" dy="0.5" layer="1" roundness="100"/>
<smd name="L5IN_3" x="-3.5" y="-5.5" dx="0.5" dy="0.5" layer="1" roundness="100"/>
<smd name="L5IN_A" x="-2.5" y="-5.5" dx="0.5" dy="0.5" layer="1" roundness="100"/>
<smd name="L0OUT_3" x="-1.5" y="-5.5" dx="0.5" dy="0.5" layer="1" roundness="100"/>
<smd name="L0OUT_A" x="-0.5" y="-5.5" dx="0.5" dy="0.5" layer="1" roundness="100"/>
<smd name="L0IN_3" x="0.5" y="-5.5" dx="0.5" dy="0.5" layer="1" roundness="100"/>
<smd name="L0IN_A" x="1.5" y="-5.5" dx="0.5" dy="0.5" layer="1" roundness="100"/>
<smd name="L1OUT_3" x="2.5" y="-5.5" dx="0.5" dy="0.5" layer="1" roundness="100"/>
<smd name="L1OUT_A" x="3.5" y="-5.5" dx="0.5" dy="0.5" layer="1" roundness="100"/>
<smd name="L1IN_3" x="4.5" y="-5.5" dx="0.5" dy="0.5" layer="1" roundness="100"/>
<smd name="L2IN_A" x="6.5" y="-5.5" dx="0.5" dy="0.5" layer="1" roundness="100"/>
<smd name="L2OUT_0" x="7.5" y="-5.5" dx="0.5" dy="0.5" layer="1" roundness="100"/>
<smd name="L2OUT_1" x="8.5" y="-5.5" dx="0.5" dy="0.5" layer="1" roundness="100"/>
<smd name="DQ24" x="-8.5" y="-6.5" dx="0.5" dy="0.5" layer="1" roundness="100"/>
<smd name="DQ25" x="-7.5" y="-6.5" dx="0.5" dy="0.5" layer="1" roundness="100"/>
<smd name="DQ26" x="-6.5" y="-6.5" dx="0.5" dy="0.5" layer="1" roundness="100"/>
<smd name="L5OUT_3" x="-5.5" y="-6.5" dx="0.5" dy="0.5" layer="1" roundness="100"/>
<smd name="L5OUT_6" x="-4.5" y="-6.5" dx="0.5" dy="0.5" layer="1" roundness="100"/>
<smd name="L5IN_2" x="-3.5" y="-6.5" dx="0.5" dy="0.5" layer="1" roundness="100"/>
<smd name="L5IN_6" x="-2.5" y="-6.5" dx="0.5" dy="0.5" layer="1" roundness="100"/>
<smd name="L0OUT_2" x="-1.5" y="-6.5" dx="0.5" dy="0.5" layer="1" roundness="100"/>
<smd name="L0OUT_6" x="-0.5" y="-6.5" dx="0.5" dy="0.5" layer="1" roundness="100"/>
<smd name="L0IN_2" x="0.5" y="-6.5" dx="0.5" dy="0.5" layer="1" roundness="100"/>
<smd name="L0IN_6" x="1.5" y="-6.5" dx="0.5" dy="0.5" layer="1" roundness="100"/>
<smd name="L1OUT_2" x="2.5" y="-6.5" dx="0.5" dy="0.5" layer="1" roundness="100"/>
<smd name="L1OUT_6" x="3.5" y="-6.5" dx="0.5" dy="0.5" layer="1" roundness="100"/>
<smd name="L1IN_2" x="4.5" y="-6.5" dx="0.5" dy="0.5" layer="1" roundness="100"/>
<smd name="L1IN_6" x="5.5" y="-6.5" dx="0.5" dy="0.5" layer="1" roundness="100"/>
<smd name="L2OUT_2" x="6.5" y="-6.5" dx="0.5" dy="0.5" layer="1" roundness="100"/>
<smd name="L2OUT_3" x="7.5" y="-6.5" dx="0.5" dy="0.5" layer="1" roundness="100"/>
<smd name="L2OUT_4" x="8.5" y="-6.5" dx="0.5" dy="0.5" layer="1" roundness="100"/>
<smd name="DQ27" x="-8.5" y="-7.5" dx="0.5" dy="0.5" layer="1" roundness="100"/>
<smd name="DQ28" x="-7.5" y="-7.5" dx="0.5" dy="0.5" layer="1" roundness="100"/>
<smd name="DQ29" x="-6.5" y="-7.5" dx="0.5" dy="0.5" layer="1" roundness="100"/>
<smd name="L5OUT_2" x="-5.5" y="-7.5" dx="0.5" dy="0.5" layer="1" roundness="100"/>
<smd name="L5OUT_5" x="-4.5" y="-7.5" dx="0.5" dy="0.5" layer="1" roundness="100"/>
<smd name="L5IN_1" x="-3.5" y="-7.5" dx="0.5" dy="0.5" layer="1" roundness="100"/>
<smd name="L5IN_5" x="-2.5" y="-7.5" dx="0.5" dy="0.5" layer="1" roundness="100"/>
<smd name="L0OUT_1" x="-1.5" y="-7.5" dx="0.5" dy="0.5" layer="1" roundness="100"/>
<smd name="L0OUT_5" x="-0.5" y="-7.5" dx="0.5" dy="0.5" layer="1" roundness="100"/>
<smd name="L0IN_1" x="0.5" y="-7.5" dx="0.5" dy="0.5" layer="1" roundness="100"/>
<smd name="L0IN_5" x="1.5" y="-7.5" dx="0.5" dy="0.5" layer="1" roundness="100"/>
<smd name="L1OUT_1" x="2.5" y="-7.5" dx="0.5" dy="0.5" layer="1" roundness="100"/>
<smd name="L1OUT_5" x="3.5" y="-7.5" dx="0.5" dy="0.5" layer="1" roundness="100"/>
<smd name="L1IN_1" x="4.5" y="-7.5" dx="0.5" dy="0.5" layer="1" roundness="100"/>
<smd name="L1IN_5" x="5.5" y="-7.5" dx="0.5" dy="0.5" layer="1" roundness="100"/>
<smd name="INT_0" x="6.5" y="-7.5" dx="0.5" dy="0.5" layer="1" roundness="100"/>
<smd name="L2OUT_5" x="7.5" y="-7.5" dx="0.5" dy="0.5" layer="1" roundness="100"/>
<smd name="L2OUT_6" x="8.5" y="-7.5" dx="0.5" dy="0.5" layer="1" roundness="100"/>
<smd name="DQ30" x="-8.5" y="-8.5" dx="0.5" dy="0.5" layer="1" roundness="100"/>
<smd name="DQ31" x="-7.5" y="-8.5" dx="0.5" dy="0.5" layer="1" roundness="100"/>
<smd name="L5OUT_0" x="-6.5" y="-8.5" dx="0.5" dy="0.5" layer="1" roundness="100"/>
<smd name="L5OUT_1" x="-5.5" y="-8.5" dx="0.5" dy="0.5" layer="1" roundness="100"/>
<smd name="L5OUT_4" x="-4.5" y="-8.5" dx="0.5" dy="0.5" layer="1" roundness="100"/>
<smd name="L5IN_0" x="-3.5" y="-8.5" dx="0.5" dy="0.5" layer="1" roundness="100"/>
<smd name="L5IN_4" x="-2.5" y="-8.5" dx="0.5" dy="0.5" layer="1" roundness="100"/>
<smd name="L0OUT_0" x="-1.5" y="-8.5" dx="0.5" dy="0.5" layer="1" roundness="100"/>
<smd name="L0OUT_4" x="-0.5" y="-8.5" dx="0.5" dy="0.5" layer="1" roundness="100"/>
<smd name="L0IN_0" x="0.5" y="-8.5" dx="0.5" dy="0.5" layer="1" roundness="100"/>
<smd name="L0IN_4" x="1.5" y="-8.5" dx="0.5" dy="0.5" layer="1" roundness="100"/>
<smd name="L1OUT_0" x="2.5" y="-8.5" dx="0.5" dy="0.5" layer="1" roundness="100"/>
<smd name="L1OUT_4" x="3.5" y="-8.5" dx="0.5" dy="0.5" layer="1" roundness="100"/>
<smd name="L1IN_0" x="4.5" y="-8.5" dx="0.5" dy="0.5" layer="1" roundness="100"/>
<smd name="L1IN_4" x="5.5" y="-8.5" dx="0.5" dy="0.5" layer="1" roundness="100"/>
<smd name="L1IN_A" x="6.5" y="-8.5" dx="0.5" dy="0.5" layer="1" roundness="100"/>
<smd name="INT_1" x="7.5" y="-8.5" dx="0.5" dy="0.5" layer="1" roundness="100"/>
<smd name="L2OUT_A" x="8.5" y="-8.5" dx="0.5" dy="0.5" layer="1" roundness="100"/>
<wire x1="-9.5" y1="8.75" x2="-8.75" y2="9.5" width="0.2" layer="21"/>
<smd name="NC_0" x="5.5" y="5.5" dx="0.5" dy="0.5" layer="1" roundness="100"/>
<smd name="NC_1" x="5.5" y="4.5" dx="0.5" dy="0.5" layer="1" roundness="100"/>
<smd name="NC_2" x="5.5" y="3.5" dx="0.5" dy="0.5" layer="1" roundness="100"/>
<smd name="NC_3" x="5.5" y="0.5" dx="0.5" dy="0.5" layer="1" roundness="100"/>
<smd name="NC_4" x="5.5" y="-4.5" dx="0.5" dy="0.5" layer="1" roundness="100"/>
<smd name="NC_5" x="5.5" y="-5.5" dx="0.5" dy="0.5" layer="1" roundness="100"/>
</package>
</packages>
<symbols>
<symbol name="SPINNAKER">
<pin name="L0IN_0" x="-81.28" y="-233.68" length="middle" rot="R90"/>
<pin name="L0IN_1" x="-86.36" y="-233.68" length="middle" rot="R90"/>
<pin name="L0IN_2" x="-91.44" y="-233.68" length="middle" rot="R90"/>
<pin name="L0IN_3" x="-96.52" y="-233.68" length="middle" rot="R90"/>
<pin name="L0IN_4" x="-101.6" y="-233.68" length="middle" rot="R90"/>
<pin name="L0IN_5" x="-106.68" y="-233.68" length="middle" rot="R90"/>
<pin name="L0IN_6" x="-111.76" y="-233.68" length="middle" rot="R90"/>
<pin name="L0IN_A" x="-116.84" y="-233.68" length="middle" rot="R90"/>
<pin name="L0OUT_0" x="-121.92" y="-233.68" length="middle" rot="R90"/>
<pin name="L0OUT_1" x="-127" y="-233.68" length="middle" rot="R90"/>
<pin name="L0OUT_2" x="-132.08" y="-233.68" length="middle" rot="R90"/>
<pin name="L0OUT_3" x="-137.16" y="-233.68" length="middle" rot="R90"/>
<pin name="L0OUT_4" x="-142.24" y="-233.68" length="middle" rot="R90"/>
<pin name="L0OUT_5" x="-147.32" y="-233.68" length="middle" rot="R90"/>
<pin name="L0OUT_6" x="-152.4" y="-233.68" length="middle" rot="R90"/>
<pin name="L0OUT_A" x="-157.48" y="-233.68" length="middle" rot="R90"/>
<pin name="L1IN_0" x="0" y="-233.68" length="middle" rot="R90"/>
<pin name="L1IN_1" x="-5.08" y="-233.68" length="middle" rot="R90"/>
<pin name="L1IN_2" x="-10.16" y="-233.68" length="middle" rot="R90"/>
<pin name="L1IN_3" x="-15.24" y="-233.68" length="middle" rot="R90"/>
<pin name="L1IN_4" x="-20.32" y="-233.68" length="middle" rot="R90"/>
<pin name="L1IN_5" x="-25.4" y="-233.68" length="middle" rot="R90"/>
<pin name="L1IN_6" x="-30.48" y="-233.68" length="middle" rot="R90"/>
<pin name="L1IN_A" x="-35.56" y="-233.68" length="middle" rot="R90"/>
<pin name="L1OUT_0" x="-40.64" y="-233.68" length="middle" rot="R90"/>
<pin name="L1OUT_1" x="-45.72" y="-233.68" length="middle" rot="R90"/>
<pin name="L1OUT_2" x="-50.8" y="-233.68" length="middle" rot="R90"/>
<pin name="L1OUT_3" x="-55.88" y="-233.68" length="middle" rot="R90"/>
<pin name="L1OUT_4" x="-60.96" y="-233.68" length="middle" rot="R90"/>
<pin name="L1OUT_5" x="-66.04" y="-233.68" length="middle" rot="R90"/>
<pin name="L1OUT_6" x="-71.12" y="-233.68" length="middle" rot="R90"/>
<pin name="L1OUT_A" x="-76.2" y="-233.68" length="middle" rot="R90"/>
<pin name="L2IN_0" x="81.28" y="-233.68" length="middle" rot="R90"/>
<pin name="L2IN_1" x="76.2" y="-233.68" length="middle" rot="R90"/>
<pin name="L2IN_2" x="71.12" y="-233.68" length="middle" rot="R90"/>
<pin name="L2IN_3" x="66.04" y="-233.68" length="middle" rot="R90"/>
<pin name="L2IN_4" x="60.96" y="-233.68" length="middle" rot="R90"/>
<pin name="L2IN_5" x="55.88" y="-233.68" length="middle" rot="R90"/>
<pin name="L2IN_6" x="50.8" y="-233.68" length="middle" rot="R90"/>
<pin name="L2IN_A" x="45.72" y="-233.68" length="middle" rot="R90"/>
<pin name="L2OUT_0" x="40.64" y="-233.68" length="middle" rot="R90"/>
<pin name="L2OUT_1" x="35.56" y="-233.68" length="middle" rot="R90"/>
<pin name="L2OUT_2" x="30.48" y="-233.68" length="middle" rot="R90"/>
<pin name="L2OUT_3" x="25.4" y="-233.68" length="middle" rot="R90"/>
<pin name="L2OUT_4" x="20.32" y="-233.68" length="middle" rot="R90"/>
<pin name="L2OUT_5" x="15.24" y="-233.68" length="middle" rot="R90"/>
<pin name="L2OUT_6" x="10.16" y="-233.68" length="middle" rot="R90"/>
<pin name="L2OUT_A" x="5.08" y="-233.68" length="middle" rot="R90"/>
<pin name="L3IN_0" x="162.56" y="-233.68" length="middle" rot="R90"/>
<pin name="L3IN_1" x="157.48" y="-233.68" length="middle" rot="R90"/>
<pin name="L3IN_2" x="152.4" y="-233.68" length="middle" rot="R90"/>
<pin name="L3IN_3" x="147.32" y="-233.68" length="middle" rot="R90"/>
<pin name="L3IN_4" x="142.24" y="-233.68" length="middle" rot="R90"/>
<pin name="L3IN_5" x="137.16" y="-233.68" length="middle" rot="R90"/>
<pin name="L3IN_6" x="132.08" y="-233.68" length="middle" rot="R90"/>
<pin name="L3IN_A" x="127" y="-233.68" length="middle" rot="R90"/>
<pin name="L3OUT_0" x="121.92" y="-233.68" length="middle" rot="R90"/>
<pin name="L3OUT_1" x="116.84" y="-233.68" length="middle" rot="R90"/>
<pin name="L3OUT_2" x="111.76" y="-233.68" length="middle" rot="R90"/>
<pin name="L3OUT_3" x="106.68" y="-233.68" length="middle" rot="R90"/>
<pin name="L3OUT_4" x="101.6" y="-233.68" length="middle" rot="R90"/>
<pin name="L3OUT_5" x="96.52" y="-233.68" length="middle" rot="R90"/>
<pin name="L3OUT_6" x="91.44" y="-233.68" length="middle" rot="R90"/>
<pin name="L3OUT_A" x="86.36" y="-233.68" length="middle" rot="R90"/>
<pin name="L4IN_0" x="172.72" y="-129.54" length="middle" rot="R180"/>
<pin name="L4IN_1" x="172.72" y="-134.62" length="middle" rot="R180"/>
<pin name="L4IN_2" x="172.72" y="-139.7" length="middle" rot="R180"/>
<pin name="L4IN_3" x="172.72" y="-144.78" length="middle" rot="R180"/>
<pin name="L4IN_4" x="172.72" y="-149.86" length="middle" rot="R180"/>
<pin name="L4IN_5" x="172.72" y="-154.94" length="middle" rot="R180"/>
<pin name="L4IN_6" x="172.72" y="-160.02" length="middle" rot="R180"/>
<pin name="L4IN_A" x="172.72" y="-165.1" length="middle" rot="R180"/>
<pin name="L4OUT_0" x="172.72" y="-170.18" length="middle" rot="R180"/>
<pin name="L4OUT_1" x="172.72" y="-175.26" length="middle" rot="R180"/>
<pin name="L4OUT_2" x="172.72" y="-180.34" length="middle" rot="R180"/>
<pin name="L4OUT_3" x="172.72" y="-185.42" length="middle" rot="R180"/>
<pin name="L4OUT_4" x="172.72" y="-190.5" length="middle" rot="R180"/>
<pin name="L4OUT_5" x="172.72" y="-195.58" length="middle" rot="R180"/>
<pin name="L4OUT_6" x="172.72" y="-200.66" length="middle" rot="R180"/>
<pin name="L4OUT_A" x="172.72" y="-205.74" length="middle" rot="R180"/>
<pin name="L5IN_0" x="172.72" y="-48.26" length="middle" rot="R180"/>
<pin name="L5IN_1" x="172.72" y="-53.34" length="middle" rot="R180"/>
<pin name="L5IN_2" x="172.72" y="-58.42" length="middle" rot="R180"/>
<pin name="L5IN_3" x="172.72" y="-63.5" length="middle" rot="R180"/>
<pin name="L5IN_4" x="172.72" y="-68.58" length="middle" rot="R180"/>
<pin name="L5IN_5" x="172.72" y="-73.66" length="middle" rot="R180"/>
<pin name="L5IN_6" x="172.72" y="-78.74" length="middle" rot="R180"/>
<pin name="L5IN_A" x="172.72" y="-83.82" length="middle" rot="R180"/>
<pin name="L5OUT_0" x="172.72" y="-88.9" length="middle" rot="R180"/>
<pin name="L5OUT_1" x="172.72" y="-93.98" length="middle" rot="R180"/>
<pin name="L5OUT_2" x="172.72" y="-99.06" length="middle" rot="R180"/>
<pin name="L5OUT_3" x="172.72" y="-104.14" length="middle" rot="R180"/>
<pin name="L5OUT_4" x="172.72" y="-109.22" length="middle" rot="R180"/>
<pin name="L5OUT_5" x="172.72" y="-114.3" length="middle" rot="R180"/>
<pin name="L5OUT_6" x="172.72" y="-119.38" length="middle" rot="R180"/>
<pin name="L5OUT_A" x="172.72" y="-124.46" length="middle" rot="R180"/>
<pin name="INT_0" x="172.72" y="139.7" length="middle" rot="R180"/>
<pin name="INT_1" x="172.72" y="134.62" length="middle" rot="R180"/>
<pin name="VDD_PLL_0" x="-167.64" y="-7.62" length="middle"/>
<pin name="VDD_PLL_1" x="-167.64" y="-12.7" length="middle"/>
<pin name="VDD_PLL_2" x="-167.64" y="-17.78" length="middle"/>
<pin name="VDD_PLL_3" x="-167.64" y="-22.86" length="middle"/>
<pin name="VSS_PLL_0" x="-167.64" y="12.7" length="middle"/>
<pin name="VSS_PLL_1" x="-167.64" y="7.62" length="middle"/>
<pin name="VSS_PLL_2" x="-167.64" y="2.54" length="middle"/>
<pin name="VSS_PLL_3" x="-167.64" y="-2.54" length="middle"/>
<pin name="GPIO_0" x="172.72" y="129.54" length="middle" rot="R180"/>
<pin name="GPIO_1" x="172.72" y="124.46" length="middle" rot="R180"/>
<pin name="GPIO_2" x="172.72" y="119.38" length="middle" rot="R180"/>
<pin name="GPIO_3" x="172.72" y="114.3" length="middle" rot="R180"/>
<pin name="GPIO_4" x="172.72" y="109.22" length="middle" rot="R180"/>
<pin name="GPIO_5" x="172.72" y="104.14" length="middle" rot="R180"/>
<pin name="GPIO_6" x="172.72" y="99.06" length="middle" rot="R180"/>
<pin name="GPIO_7" x="172.72" y="93.98" length="middle" rot="R180"/>
<pin name="GPIO_8" x="172.72" y="88.9" length="middle" rot="R180"/>
<pin name="GPIO_9" x="172.72" y="83.82" length="middle" rot="R180"/>
<pin name="GPIO_10" x="172.72" y="78.74" length="middle" rot="R180"/>
<pin name="GPIO_11" x="172.72" y="73.66" length="middle" rot="R180"/>
<pin name="GPIO_12" x="172.72" y="68.58" length="middle" rot="R180"/>
<pin name="GPIO_13" x="172.72" y="63.5" length="middle" rot="R180"/>
<pin name="GPIO_14" x="172.72" y="58.42" length="middle" rot="R180"/>
<pin name="GPIO_15" x="172.72" y="53.34" length="middle" rot="R180"/>
<pin name="RTCK" x="172.72" y="170.18" length="middle" rot="R180"/>
<pin name="TDO" x="172.72" y="165.1" length="middle" rot="R180"/>
<pin name="TDI" x="172.72" y="160.02" length="middle" rot="R180"/>
<pin name="TMS" x="172.72" y="154.94" length="middle" rot="R180"/>
<pin name="TCK" x="172.72" y="149.86" length="middle" rot="R180"/>
<pin name="TRST" x="172.72" y="144.78" length="middle" rot="R180"/>
<pin name="CLK32KIN" x="172.72" y="205.74" length="middle" rot="R180"/>
<pin name="CLK10MOUT" x="172.72" y="200.66" length="middle" rot="R180"/>
<pin name="CLK10MIN" x="172.72" y="195.58" length="middle" rot="R180"/>
<pin name="TEST" x="172.72" y="190.5" length="middle" rot="R180"/>
<pin name="POR" x="172.72" y="185.42" length="middle" rot="R180"/>
<pin name="RESET" x="172.72" y="180.34" length="middle" rot="R180"/>
<pin name="TRES" x="172.72" y="175.26" length="middle" rot="R180"/>
<pin name="VDD12_0" x="-167.64" y="-73.66" length="middle"/>
<pin name="VDD12_1" x="-167.64" y="-68.58" length="middle"/>
<pin name="VDD12_2" x="-167.64" y="-63.5" length="middle"/>
<pin name="VDD12_3" x="-167.64" y="-58.42" length="middle"/>
<pin name="VDD12_4" x="-167.64" y="-53.34" length="middle"/>
<pin name="VDD12_5" x="-167.64" y="-48.26" length="middle"/>
<pin name="VDD12_6" x="-167.64" y="-43.18" length="middle"/>
<pin name="VDD12_7" x="-167.64" y="-38.1" length="middle"/>
<pin name="VDD12_8" x="-167.64" y="-33.02" length="middle"/>
<pin name="VDD12_9" x="-167.64" y="-27.94" length="middle"/>
<pin name="VDD18_0" x="-167.64" y="-215.9" length="middle"/>
<pin name="VDD18_1" x="-167.64" y="-210.82" length="middle"/>
<pin name="VDD18_2" x="-167.64" y="-205.74" length="middle"/>
<pin name="VDD18_3" x="-167.64" y="-200.66" length="middle"/>
<pin name="VDD18_4" x="-167.64" y="-195.58" length="middle"/>
<pin name="VDD18_5" x="-167.64" y="-190.5" length="middle"/>
<pin name="VDD18_6" x="-167.64" y="-185.42" length="middle"/>
<pin name="VDD18_7" x="-167.64" y="-180.34" length="middle"/>
<pin name="VDD18_8" x="-167.64" y="-175.26" length="middle"/>
<pin name="VDD18_9" x="-167.64" y="-170.18" length="middle"/>
<pin name="VDD18_10" x="-167.64" y="-165.1" length="middle"/>
<pin name="VDD18_11" x="-167.64" y="-160.02" length="middle"/>
<pin name="VDD18_12" x="-167.64" y="-154.94" length="middle"/>
<pin name="VDD18_13" x="-167.64" y="-149.86" length="middle"/>
<pin name="VDD18_14" x="-167.64" y="-144.78" length="middle"/>
<pin name="VDD18_15" x="-167.64" y="-139.7" length="middle"/>
<pin name="VDD18_16" x="-167.64" y="-134.62" length="middle"/>
<pin name="VDD18_17" x="-167.64" y="-129.54" length="middle"/>
<pin name="VDD18_18" x="-167.64" y="-124.46" length="middle"/>
<pin name="VDD18_19" x="-167.64" y="-119.38" length="middle"/>
<pin name="VDD18_20" x="-167.64" y="-114.3" length="middle"/>
<pin name="VDD18_21" x="-167.64" y="-109.22" length="middle"/>
<pin name="VDD18_22" x="-167.64" y="-104.14" length="middle"/>
<pin name="VDD18_23" x="-167.64" y="-99.06" length="middle"/>
<pin name="VDD18_24" x="-167.64" y="-93.98" length="middle"/>
<pin name="VDD18_25" x="-167.64" y="-88.9" length="middle"/>
<pin name="VDD18_26" x="-167.64" y="-83.82" length="middle"/>
<pin name="VDD18_27" x="-167.64" y="-78.74" length="middle"/>
<pin name="VSS_0" x="-167.64" y="17.78" length="middle"/>
<pin name="VSS_1" x="-167.64" y="22.86" length="middle"/>
<pin name="VSS_2" x="-167.64" y="27.94" length="middle"/>
<pin name="VSS_3" x="-167.64" y="33.02" length="middle"/>
<pin name="VSS_4" x="-167.64" y="38.1" length="middle"/>
<pin name="VSS_5" x="-167.64" y="43.18" length="middle"/>
<pin name="VSS_6" x="-167.64" y="48.26" length="middle"/>
<pin name="VSS_7" x="-167.64" y="53.34" length="middle"/>
<pin name="VSS_8" x="-167.64" y="58.42" length="middle"/>
<pin name="VSS_9" x="-167.64" y="63.5" length="middle"/>
<pin name="VSS_10" x="-167.64" y="68.58" length="middle"/>
<pin name="VSS_11" x="-167.64" y="73.66" length="middle"/>
<pin name="VSS_12" x="-167.64" y="78.74" length="middle"/>
<pin name="VSS_13" x="-167.64" y="83.82" length="middle"/>
<pin name="VSS_14" x="-167.64" y="88.9" length="middle"/>
<pin name="VSS_15" x="-167.64" y="93.98" length="middle"/>
<pin name="VSS_16" x="-167.64" y="99.06" length="middle"/>
<pin name="VSS_17" x="-167.64" y="104.14" length="middle"/>
<pin name="VSS_18" x="-167.64" y="109.22" length="middle"/>
<pin name="VSS_19" x="-167.64" y="114.3" length="middle"/>
<pin name="VSS_20" x="-167.64" y="119.38" length="middle"/>
<pin name="VSS_21" x="-167.64" y="124.46" length="middle"/>
<pin name="VSS_22" x="-167.64" y="129.54" length="middle"/>
<pin name="VSS_23" x="-167.64" y="134.62" length="middle"/>
<pin name="VSS_24" x="-167.64" y="139.7" length="middle"/>
<pin name="VSS_25" x="-167.64" y="144.78" length="middle"/>
<pin name="VSS_26" x="-167.64" y="149.86" length="middle"/>
<pin name="VSS_27" x="-167.64" y="154.94" length="middle"/>
<pin name="VSS_28" x="-167.64" y="160.02" length="middle"/>
<pin name="VSS_29" x="-167.64" y="165.1" length="middle"/>
<pin name="VSS_30" x="-167.64" y="170.18" length="middle"/>
<pin name="VSS_31" x="-167.64" y="175.26" length="middle"/>
<pin name="VSS_32" x="-167.64" y="180.34" length="middle"/>
<pin name="VSS_33" x="-167.64" y="185.42" length="middle"/>
<pin name="VSS_34" x="-167.64" y="190.5" length="middle"/>
<pin name="VSS_35" x="-167.64" y="195.58" length="middle"/>
<pin name="MDIO" x="172.72" y="48.26" length="middle" rot="R180"/>
<pin name="RX_D_0" x="172.72" y="43.18" length="middle" rot="R180"/>
<pin name="RX_D_1" x="172.72" y="38.1" length="middle" rot="R180"/>
<pin name="RX_D_2" x="172.72" y="33.02" length="middle" rot="R180"/>
<pin name="RX_D_3" x="172.72" y="27.94" length="middle" rot="R180"/>
<pin name="RX_CLK" x="172.72" y="22.86" length="middle" rot="R180"/>
<pin name="TX_CLK" x="172.72" y="17.78" length="middle" rot="R180"/>
<pin name="TX_D_0" x="172.72" y="12.7" length="middle" rot="R180"/>
<pin name="TX_D_1" x="172.72" y="7.62" length="middle" rot="R180"/>
<pin name="TX_D_2" x="172.72" y="2.54" length="middle" rot="R180"/>
<pin name="TX_D_3" x="172.72" y="-2.54" length="middle" rot="R180"/>
<pin name="TX_EN" x="172.72" y="-7.62" length="middle" rot="R180"/>
<pin name="PHY_RST" x="172.72" y="-12.7" length="middle" rot="R180"/>
<pin name="PHY_IRQ" x="172.72" y="-17.78" length="middle" rot="R180"/>
<pin name="TX_ERR" x="172.72" y="-22.86" length="middle" rot="R180"/>
<pin name="RX_ERR" x="172.72" y="-27.94" length="middle" rot="R180"/>
<pin name="MDC" x="172.72" y="-33.02" length="middle" rot="R180"/>
<pin name="ETHERMUX" x="172.72" y="-38.1" length="middle" rot="R180"/>
<pin name="RX_DV" x="172.72" y="-43.18" length="middle" rot="R180"/>
<pin name="DQ17" x="-71.12" y="220.98" length="middle" rot="R270"/>
<pin name="DQ16" x="-76.2" y="220.98" length="middle" rot="R270"/>
<pin name="DQ15" x="-81.28" y="220.98" length="middle" rot="R270"/>
<pin name="DQ14" x="-86.36" y="220.98" length="middle" rot="R270"/>
<pin name="DQ13" x="-91.44" y="220.98" length="middle" rot="R270"/>
<pin name="DQ12" x="-96.52" y="220.98" length="middle" rot="R270"/>
<pin name="DQ11" x="-101.6" y="220.98" length="middle" rot="R270"/>
<pin name="DQ10" x="-106.68" y="220.98" length="middle" rot="R270"/>
<pin name="DQ9" x="-111.76" y="220.98" length="middle" rot="R270"/>
<pin name="DQ8" x="-116.84" y="220.98" length="middle" rot="R270"/>
<pin name="DQ7" x="-121.92" y="220.98" length="middle" rot="R270"/>
<pin name="DQ5" x="-132.08" y="220.98" length="middle" rot="R270"/>
<pin name="DQ6" x="-127" y="220.98" length="middle" rot="R270"/>
<pin name="DQ4" x="-137.16" y="220.98" length="middle" rot="R270"/>
<pin name="DQ3" x="-142.24" y="220.98" length="middle" rot="R270"/>
<pin name="DQ2" x="-147.32" y="220.98" length="middle" rot="R270"/>
<pin name="DQ1" x="-152.4" y="220.98" length="middle" rot="R270"/>
<pin name="DQ0" x="-157.48" y="220.98" length="middle" rot="R270"/>
<pin name="DQ18" x="-66.04" y="220.98" length="middle" rot="R270"/>
<pin name="DQ19" x="-60.96" y="220.98" length="middle" rot="R270"/>
<pin name="DQ20" x="-55.88" y="220.98" length="middle" rot="R270"/>
<pin name="DQ21" x="-50.8" y="220.98" length="middle" rot="R270"/>
<pin name="DQ22" x="-45.72" y="220.98" length="middle" rot="R270"/>
<pin name="DQ23" x="-40.64" y="220.98" length="middle" rot="R270"/>
<pin name="DQ24" x="-35.56" y="220.98" length="middle" rot="R270"/>
<pin name="DQ25" x="-30.48" y="220.98" length="middle" rot="R270"/>
<pin name="DQ26" x="-25.4" y="220.98" length="middle" rot="R270"/>
<pin name="DQ27" x="-20.32" y="220.98" length="middle" rot="R270"/>
<pin name="DQ28" x="-15.24" y="220.98" length="middle" rot="R270"/>
<pin name="DQ29" x="-10.16" y="220.98" length="middle" rot="R270"/>
<pin name="DQ30" x="-5.08" y="220.98" length="middle" rot="R270"/>
<pin name="DQ31" x="0" y="220.98" length="middle" rot="R270"/>
<pin name="DQS0" x="5.08" y="220.98" length="middle" rot="R270"/>
<pin name="DQS1" x="10.16" y="220.98" length="middle" rot="R270"/>
<pin name="DQS2" x="15.24" y="220.98" length="middle" rot="R270"/>
<pin name="DQS3" x="20.32" y="220.98" length="middle" rot="R270"/>
<pin name="DM0" x="25.4" y="220.98" length="middle" rot="R270"/>
<pin name="DM1" x="30.48" y="220.98" length="middle" rot="R270"/>
<pin name="DM2" x="35.56" y="220.98" length="middle" rot="R270"/>
<pin name="DM3" x="40.64" y="220.98" length="middle" rot="R270"/>
<pin name="A0" x="45.72" y="220.98" length="middle" rot="R270"/>
<pin name="A1" x="50.8" y="220.98" length="middle" rot="R270"/>
<pin name="A2" x="55.88" y="220.98" length="middle" rot="R270"/>
<pin name="A3" x="60.96" y="220.98" length="middle" rot="R270"/>
<pin name="A4" x="66.04" y="220.98" length="middle" rot="R270"/>
<pin name="A5" x="71.12" y="220.98" length="middle" rot="R270"/>
<pin name="A6" x="76.2" y="220.98" length="middle" rot="R270"/>
<pin name="A8" x="86.36" y="220.98" length="middle" rot="R270"/>
<pin name="A7" x="81.28" y="220.98" length="middle" rot="R270"/>
<pin name="A9" x="91.44" y="220.98" length="middle" rot="R270"/>
<pin name="A10" x="96.52" y="220.98" length="middle" rot="R270"/>
<pin name="A11" x="101.6" y="220.98" length="middle" rot="R270"/>
<pin name="A12" x="106.68" y="220.98" length="middle" rot="R270"/>
<pin name="A13" x="111.76" y="220.98" length="middle" rot="R270"/>
<pin name="BA0" x="116.84" y="220.98" length="middle" rot="R270"/>
<pin name="BA1" x="121.92" y="220.98" length="middle" rot="R270"/>
<pin name="CK#" x="127" y="220.98" length="middle" rot="R270"/>
<pin name="CK" x="132.08" y="220.98" length="middle" rot="R270"/>
<pin name="CS#" x="137.16" y="220.98" length="middle" rot="R270"/>
<pin name="CS1#" x="142.24" y="220.98" length="middle" rot="R270"/>
<pin name="RAS#" x="147.32" y="220.98" length="middle" rot="R270"/>
<pin name="CAS#" x="152.4" y="220.98" length="middle" rot="R270"/>
<pin name="WE#" x="157.48" y="220.98" length="middle" rot="R270"/>
<pin name="CKE" x="162.56" y="220.98" length="middle" rot="R270"/>
<wire x1="-162.56" y1="215.9" x2="167.64" y2="215.9" width="0.254" layer="94"/>
<wire x1="-162.56" y1="215.9" x2="-162.56" y2="-228.6" width="0.254" layer="94"/>
<wire x1="-162.56" y1="-228.6" x2="167.64" y2="-228.6" width="0.254" layer="94"/>
<wire x1="167.64" y1="-228.6" x2="167.64" y2="215.9" width="0.254" layer="94"/>
<pin name="VSS_36" x="-167.64" y="200.66" length="middle"/>
<pin name="VSS_37" x="-167.64" y="205.74" length="middle"/>
<text x="-142.24" y="198.12" size="1.778" layer="95">&gt;NAME</text>
<text x="-142.24" y="195.58" size="1.778" layer="96">&gt;VALUE</text>
<pin name="NC_0" x="-40.64" y="-172.72" length="middle"/>
<pin name="NC_1" x="-40.64" y="-177.8" length="middle"/>
<pin name="NC_2" x="-40.64" y="-182.88" length="middle"/>
<pin name="NC_3" x="-40.64" y="-187.96" length="middle"/>
<pin name="NC_4" x="-40.64" y="-193.04" length="middle"/>
<pin name="NC_5" x="-40.64" y="-198.12" length="middle"/>
</symbol>
</symbols>
<devicesets>
<deviceset name="SPINNAKER">
<description>SpiNNaker (Spiking Neural Network Architecture) is a computer architecture designed by the Advanced Processor Technologies Research Group (APT) at the University of Manchester,
 led by Steve Furber, to simulate the human brain. It uses ARM processors in a massively parallel computing platform, based on a six-layer thalamocortical model developed by Eugene Izhikevich.</description>
<gates>
<gate name="G$1" symbol="SPINNAKER" x="-132.08" y="345.44"/>
</gates>
<devices>
<device name="" package="LBGA300">
<connects>
<connect gate="G$1" pin="A0" pad="A0"/>
<connect gate="G$1" pin="A1" pad="A1"/>
<connect gate="G$1" pin="A10" pad="A10"/>
<connect gate="G$1" pin="A11" pad="A11"/>
<connect gate="G$1" pin="A12" pad="A12"/>
<connect gate="G$1" pin="A13" pad="A13"/>
<connect gate="G$1" pin="A2" pad="A2"/>
<connect gate="G$1" pin="A3" pad="A3"/>
<connect gate="G$1" pin="A4" pad="A4"/>
<connect gate="G$1" pin="A5" pad="A5"/>
<connect gate="G$1" pin="A6" pad="A6"/>
<connect gate="G$1" pin="A7" pad="A7"/>
<connect gate="G$1" pin="A8" pad="A8"/>
<connect gate="G$1" pin="A9" pad="A9"/>
<connect gate="G$1" pin="BA0" pad="BA0"/>
<connect gate="G$1" pin="BA1" pad="BA1"/>
<connect gate="G$1" pin="CAS#" pad="CAS#"/>
<connect gate="G$1" pin="CK" pad="CK"/>
<connect gate="G$1" pin="CK#" pad="CK#"/>
<connect gate="G$1" pin="CKE" pad="CKE"/>
<connect gate="G$1" pin="CLK10MIN" pad="CLK10MIN"/>
<connect gate="G$1" pin="CLK10MOUT" pad="CLK10MOUT"/>
<connect gate="G$1" pin="CLK32KIN" pad="CLK32KIN"/>
<connect gate="G$1" pin="CS#" pad="CS#"/>
<connect gate="G$1" pin="CS1#" pad="CS1#"/>
<connect gate="G$1" pin="DM0" pad="DM0"/>
<connect gate="G$1" pin="DM1" pad="DM1"/>
<connect gate="G$1" pin="DM2" pad="DM2"/>
<connect gate="G$1" pin="DM3" pad="DM3"/>
<connect gate="G$1" pin="DQ0" pad="DQ0"/>
<connect gate="G$1" pin="DQ1" pad="DQ1"/>
<connect gate="G$1" pin="DQ10" pad="DQ10"/>
<connect gate="G$1" pin="DQ11" pad="DQ11"/>
<connect gate="G$1" pin="DQ12" pad="DQ12"/>
<connect gate="G$1" pin="DQ13" pad="DQ13"/>
<connect gate="G$1" pin="DQ14" pad="DQ14"/>
<connect gate="G$1" pin="DQ15" pad="DQ15"/>
<connect gate="G$1" pin="DQ16" pad="DQ16"/>
<connect gate="G$1" pin="DQ17" pad="DQ17"/>
<connect gate="G$1" pin="DQ18" pad="DQ18"/>
<connect gate="G$1" pin="DQ19" pad="DQ19"/>
<connect gate="G$1" pin="DQ2" pad="DQ2"/>
<connect gate="G$1" pin="DQ20" pad="DQ20"/>
<connect gate="G$1" pin="DQ21" pad="DQ21"/>
<connect gate="G$1" pin="DQ22" pad="DQ22"/>
<connect gate="G$1" pin="DQ23" pad="DQ23"/>
<connect gate="G$1" pin="DQ24" pad="DQ24"/>
<connect gate="G$1" pin="DQ25" pad="DQ25"/>
<connect gate="G$1" pin="DQ26" pad="DQ26"/>
<connect gate="G$1" pin="DQ27" pad="DQ27"/>
<connect gate="G$1" pin="DQ28" pad="DQ28"/>
<connect gate="G$1" pin="DQ29" pad="DQ29"/>
<connect gate="G$1" pin="DQ3" pad="DQ3"/>
<connect gate="G$1" pin="DQ30" pad="DQ30"/>
<connect gate="G$1" pin="DQ31" pad="DQ31"/>
<connect gate="G$1" pin="DQ4" pad="DQ4"/>
<connect gate="G$1" pin="DQ5" pad="DQ5"/>
<connect gate="G$1" pin="DQ6" pad="DQ6"/>
<connect gate="G$1" pin="DQ7" pad="DQ7"/>
<connect gate="G$1" pin="DQ8" pad="DQ8"/>
<connect gate="G$1" pin="DQ9" pad="DQ9"/>
<connect gate="G$1" pin="DQS0" pad="DQS0"/>
<connect gate="G$1" pin="DQS1" pad="DQS1"/>
<connect gate="G$1" pin="DQS2" pad="DQS2"/>
<connect gate="G$1" pin="DQS3" pad="DQS3"/>
<connect gate="G$1" pin="ETHERMUX" pad="ETHERMUX"/>
<connect gate="G$1" pin="GPIO_0" pad="GPIO_0"/>
<connect gate="G$1" pin="GPIO_1" pad="GPIO_1"/>
<connect gate="G$1" pin="GPIO_10" pad="GPIO_10"/>
<connect gate="G$1" pin="GPIO_11" pad="GPIO_11"/>
<connect gate="G$1" pin="GPIO_12" pad="GPIO_12"/>
<connect gate="G$1" pin="GPIO_13" pad="GPIO_13"/>
<connect gate="G$1" pin="GPIO_14" pad="GPIO_14"/>
<connect gate="G$1" pin="GPIO_15" pad="GPIO_15"/>
<connect gate="G$1" pin="GPIO_2" pad="GPIO_2"/>
<connect gate="G$1" pin="GPIO_3" pad="GPIO_3"/>
<connect gate="G$1" pin="GPIO_4" pad="GPIO_4"/>
<connect gate="G$1" pin="GPIO_5" pad="GPIO_5"/>
<connect gate="G$1" pin="GPIO_6" pad="GPIO_6"/>
<connect gate="G$1" pin="GPIO_7" pad="GPIO_7"/>
<connect gate="G$1" pin="GPIO_8" pad="GPIO_8"/>
<connect gate="G$1" pin="GPIO_9" pad="GPIO_9"/>
<connect gate="G$1" pin="INT_0" pad="INT_0"/>
<connect gate="G$1" pin="INT_1" pad="INT_1"/>
<connect gate="G$1" pin="L0IN_0" pad="L0IN_0"/>
<connect gate="G$1" pin="L0IN_1" pad="L0IN_1"/>
<connect gate="G$1" pin="L0IN_2" pad="L0IN_2"/>
<connect gate="G$1" pin="L0IN_3" pad="L0IN_3"/>
<connect gate="G$1" pin="L0IN_4" pad="L0IN_4"/>
<connect gate="G$1" pin="L0IN_5" pad="L0IN_5"/>
<connect gate="G$1" pin="L0IN_6" pad="L0IN_6"/>
<connect gate="G$1" pin="L0IN_A" pad="L0IN_A"/>
<connect gate="G$1" pin="L0OUT_0" pad="L0OUT_0"/>
<connect gate="G$1" pin="L0OUT_1" pad="L0OUT_1"/>
<connect gate="G$1" pin="L0OUT_2" pad="L0OUT_2"/>
<connect gate="G$1" pin="L0OUT_3" pad="L0OUT_3"/>
<connect gate="G$1" pin="L0OUT_4" pad="L0OUT_4"/>
<connect gate="G$1" pin="L0OUT_5" pad="L0OUT_5"/>
<connect gate="G$1" pin="L0OUT_6" pad="L0OUT_6"/>
<connect gate="G$1" pin="L0OUT_A" pad="L0OUT_A"/>
<connect gate="G$1" pin="L1IN_0" pad="L1IN_0"/>
<connect gate="G$1" pin="L1IN_1" pad="L1IN_1"/>
<connect gate="G$1" pin="L1IN_2" pad="L1IN_2"/>
<connect gate="G$1" pin="L1IN_3" pad="L1IN_3"/>
<connect gate="G$1" pin="L1IN_4" pad="L1IN_4"/>
<connect gate="G$1" pin="L1IN_5" pad="L1IN_5"/>
<connect gate="G$1" pin="L1IN_6" pad="L1IN_6"/>
<connect gate="G$1" pin="L1IN_A" pad="L1IN_A"/>
<connect gate="G$1" pin="L1OUT_0" pad="L1OUT_0"/>
<connect gate="G$1" pin="L1OUT_1" pad="L1OUT_1"/>
<connect gate="G$1" pin="L1OUT_2" pad="L1OUT_2"/>
<connect gate="G$1" pin="L1OUT_3" pad="L1OUT_3"/>
<connect gate="G$1" pin="L1OUT_4" pad="L1OUT_4"/>
<connect gate="G$1" pin="L1OUT_5" pad="L1OUT_5"/>
<connect gate="G$1" pin="L1OUT_6" pad="L1OUT_6"/>
<connect gate="G$1" pin="L1OUT_A" pad="L1OUT_A"/>
<connect gate="G$1" pin="L2IN_0" pad="L2IN_0"/>
<connect gate="G$1" pin="L2IN_1" pad="L2IN_1"/>
<connect gate="G$1" pin="L2IN_2" pad="L2IN_2"/>
<connect gate="G$1" pin="L2IN_3" pad="L2IN_3"/>
<connect gate="G$1" pin="L2IN_4" pad="L2IN_4"/>
<connect gate="G$1" pin="L2IN_5" pad="L2IN_5"/>
<connect gate="G$1" pin="L2IN_6" pad="L2IN_6"/>
<connect gate="G$1" pin="L2IN_A" pad="L2IN_A"/>
<connect gate="G$1" pin="L2OUT_0" pad="L2OUT_0"/>
<connect gate="G$1" pin="L2OUT_1" pad="L2OUT_1"/>
<connect gate="G$1" pin="L2OUT_2" pad="L2OUT_2"/>
<connect gate="G$1" pin="L2OUT_3" pad="L2OUT_3"/>
<connect gate="G$1" pin="L2OUT_4" pad="L2OUT_4"/>
<connect gate="G$1" pin="L2OUT_5" pad="L2OUT_5"/>
<connect gate="G$1" pin="L2OUT_6" pad="L2OUT_6"/>
<connect gate="G$1" pin="L2OUT_A" pad="L2OUT_A"/>
<connect gate="G$1" pin="L3IN_0" pad="L3IN_0"/>
<connect gate="G$1" pin="L3IN_1" pad="L3IN_1"/>
<connect gate="G$1" pin="L3IN_2" pad="L3IN_2"/>
<connect gate="G$1" pin="L3IN_3" pad="L3IN_3"/>
<connect gate="G$1" pin="L3IN_4" pad="L3IN_4"/>
<connect gate="G$1" pin="L3IN_5" pad="L3IN_5"/>
<connect gate="G$1" pin="L3IN_6" pad="L3IN_6"/>
<connect gate="G$1" pin="L3IN_A" pad="L3IN_A"/>
<connect gate="G$1" pin="L3OUT_0" pad="L3OUT_0"/>
<connect gate="G$1" pin="L3OUT_1" pad="L3OUT_1"/>
<connect gate="G$1" pin="L3OUT_2" pad="L3OUT_2"/>
<connect gate="G$1" pin="L3OUT_3" pad="L3OUT_3"/>
<connect gate="G$1" pin="L3OUT_4" pad="L3OUT_4"/>
<connect gate="G$1" pin="L3OUT_5" pad="L3OUT_5"/>
<connect gate="G$1" pin="L3OUT_6" pad="L3OUT_6"/>
<connect gate="G$1" pin="L3OUT_A" pad="L3OUT_A"/>
<connect gate="G$1" pin="L4IN_0" pad="L4IN_0"/>
<connect gate="G$1" pin="L4IN_1" pad="L4IN_1"/>
<connect gate="G$1" pin="L4IN_2" pad="L4IN_2"/>
<connect gate="G$1" pin="L4IN_3" pad="L4IN_3"/>
<connect gate="G$1" pin="L4IN_4" pad="L4IN_4"/>
<connect gate="G$1" pin="L4IN_5" pad="L4IN_5"/>
<connect gate="G$1" pin="L4IN_6" pad="L4IN_6"/>
<connect gate="G$1" pin="L4IN_A" pad="L4IN_A"/>
<connect gate="G$1" pin="L4OUT_0" pad="L4OUT_0"/>
<connect gate="G$1" pin="L4OUT_1" pad="L4OUT_1"/>
<connect gate="G$1" pin="L4OUT_2" pad="L4OUT_2"/>
<connect gate="G$1" pin="L4OUT_3" pad="L4OUT_3"/>
<connect gate="G$1" pin="L4OUT_4" pad="L4OUT_4"/>
<connect gate="G$1" pin="L4OUT_5" pad="L4OUT_5"/>
<connect gate="G$1" pin="L4OUT_6" pad="L4OUT_6"/>
<connect gate="G$1" pin="L4OUT_A" pad="L4OUT_A"/>
<connect gate="G$1" pin="L5IN_0" pad="L5IN_0"/>
<connect gate="G$1" pin="L5IN_1" pad="L5IN_1"/>
<connect gate="G$1" pin="L5IN_2" pad="L5IN_2"/>
<connect gate="G$1" pin="L5IN_3" pad="L5IN_3"/>
<connect gate="G$1" pin="L5IN_4" pad="L5IN_4"/>
<connect gate="G$1" pin="L5IN_5" pad="L5IN_5"/>
<connect gate="G$1" pin="L5IN_6" pad="L5IN_6"/>
<connect gate="G$1" pin="L5IN_A" pad="L5IN_A"/>
<connect gate="G$1" pin="L5OUT_0" pad="L5OUT_0"/>
<connect gate="G$1" pin="L5OUT_1" pad="L5OUT_1"/>
<connect gate="G$1" pin="L5OUT_2" pad="L5OUT_2"/>
<connect gate="G$1" pin="L5OUT_3" pad="L5OUT_3"/>
<connect gate="G$1" pin="L5OUT_4" pad="L5OUT_4"/>
<connect gate="G$1" pin="L5OUT_5" pad="L5OUT_5"/>
<connect gate="G$1" pin="L5OUT_6" pad="L5OUT_6"/>
<connect gate="G$1" pin="L5OUT_A" pad="L5OUT_A"/>
<connect gate="G$1" pin="MDC" pad="MDC"/>
<connect gate="G$1" pin="MDIO" pad="MDIO"/>
<connect gate="G$1" pin="NC_0" pad="NC_0"/>
<connect gate="G$1" pin="NC_1" pad="NC_1"/>
<connect gate="G$1" pin="NC_2" pad="NC_2"/>
<connect gate="G$1" pin="NC_3" pad="NC_3"/>
<connect gate="G$1" pin="NC_4" pad="NC_4"/>
<connect gate="G$1" pin="NC_5" pad="NC_5"/>
<connect gate="G$1" pin="PHY_IRQ" pad="PHY_IRQ"/>
<connect gate="G$1" pin="PHY_RST" pad="PHY_RST"/>
<connect gate="G$1" pin="POR" pad="POR"/>
<connect gate="G$1" pin="RAS#" pad="RAS#"/>
<connect gate="G$1" pin="RESET" pad="RESET"/>
<connect gate="G$1" pin="RTCK" pad="RTCK"/>
<connect gate="G$1" pin="RX_CLK" pad="RX_CLK"/>
<connect gate="G$1" pin="RX_DV" pad="RX_DV"/>
<connect gate="G$1" pin="RX_D_0" pad="RX_D_0"/>
<connect gate="G$1" pin="RX_D_1" pad="RX_D_1"/>
<connect gate="G$1" pin="RX_D_2" pad="RX_D_2"/>
<connect gate="G$1" pin="RX_D_3" pad="RX_D_3"/>
<connect gate="G$1" pin="RX_ERR" pad="RX_ERR"/>
<connect gate="G$1" pin="TCK" pad="TCK"/>
<connect gate="G$1" pin="TDI" pad="TDI"/>
<connect gate="G$1" pin="TDO" pad="TDO"/>
<connect gate="G$1" pin="TEST" pad="TEST"/>
<connect gate="G$1" pin="TMS" pad="TMS"/>
<connect gate="G$1" pin="TRES" pad="TRES"/>
<connect gate="G$1" pin="TRST" pad="TRST"/>
<connect gate="G$1" pin="TX_CLK" pad="TX_CLK"/>
<connect gate="G$1" pin="TX_D_0" pad="TX_D_0"/>
<connect gate="G$1" pin="TX_D_1" pad="TX_D_1"/>
<connect gate="G$1" pin="TX_D_2" pad="TX_D_2"/>
<connect gate="G$1" pin="TX_D_3" pad="TX_D_3"/>
<connect gate="G$1" pin="TX_EN" pad="TX_EN"/>
<connect gate="G$1" pin="TX_ERR" pad="TX_ERR"/>
<connect gate="G$1" pin="VDD12_0" pad="VDD12_0"/>
<connect gate="G$1" pin="VDD12_1" pad="VDD12_1"/>
<connect gate="G$1" pin="VDD12_2" pad="VDD12_2"/>
<connect gate="G$1" pin="VDD12_3" pad="VDD12_3"/>
<connect gate="G$1" pin="VDD12_4" pad="VDD12_4"/>
<connect gate="G$1" pin="VDD12_5" pad="VDD12_5"/>
<connect gate="G$1" pin="VDD12_6" pad="VDD12_6"/>
<connect gate="G$1" pin="VDD12_7" pad="VDD12_7"/>
<connect gate="G$1" pin="VDD12_8" pad="VDD12_8"/>
<connect gate="G$1" pin="VDD12_9" pad="VDD12_9"/>
<connect gate="G$1" pin="VDD18_0" pad="VDD18_0"/>
<connect gate="G$1" pin="VDD18_1" pad="VDD18_1"/>
<connect gate="G$1" pin="VDD18_10" pad="VDD18_10"/>
<connect gate="G$1" pin="VDD18_11" pad="VDD18_11"/>
<connect gate="G$1" pin="VDD18_12" pad="VDD18_12"/>
<connect gate="G$1" pin="VDD18_13" pad="VDD18_13"/>
<connect gate="G$1" pin="VDD18_14" pad="VDD18_14"/>
<connect gate="G$1" pin="VDD18_15" pad="VDD18_15"/>
<connect gate="G$1" pin="VDD18_16" pad="VDD18_16"/>
<connect gate="G$1" pin="VDD18_17" pad="VDD18_17"/>
<connect gate="G$1" pin="VDD18_18" pad="VDD18_18"/>
<connect gate="G$1" pin="VDD18_19" pad="VDD18_19"/>
<connect gate="G$1" pin="VDD18_2" pad="VDD18_2"/>
<connect gate="G$1" pin="VDD18_20" pad="VDD18_20"/>
<connect gate="G$1" pin="VDD18_21" pad="VDD18_21"/>
<connect gate="G$1" pin="VDD18_22" pad="VDD18_22"/>
<connect gate="G$1" pin="VDD18_23" pad="VDD18_23"/>
<connect gate="G$1" pin="VDD18_24" pad="VDD18_24"/>
<connect gate="G$1" pin="VDD18_25" pad="VDD18_25"/>
<connect gate="G$1" pin="VDD18_26" pad="VDD18_26"/>
<connect gate="G$1" pin="VDD18_27" pad="VDD18_27"/>
<connect gate="G$1" pin="VDD18_3" pad="VDD18_3"/>
<connect gate="G$1" pin="VDD18_4" pad="VDD18_4"/>
<connect gate="G$1" pin="VDD18_5" pad="VDD18_5"/>
<connect gate="G$1" pin="VDD18_6" pad="VDD18_6"/>
<connect gate="G$1" pin="VDD18_7" pad="VDD18_7"/>
<connect gate="G$1" pin="VDD18_8" pad="VDD18_8"/>
<connect gate="G$1" pin="VDD18_9" pad="VDD18_9"/>
<connect gate="G$1" pin="VDD_PLL_0" pad="VDD_PLL_0"/>
<connect gate="G$1" pin="VDD_PLL_1" pad="VDD_PLL_1"/>
<connect gate="G$1" pin="VDD_PLL_2" pad="VDD_PLL_2"/>
<connect gate="G$1" pin="VDD_PLL_3" pad="VDD_PLL_3"/>
<connect gate="G$1" pin="VSS_0" pad="VSS_0"/>
<connect gate="G$1" pin="VSS_1" pad="VSS_1"/>
<connect gate="G$1" pin="VSS_10" pad="VSS_10"/>
<connect gate="G$1" pin="VSS_11" pad="VSS_11"/>
<connect gate="G$1" pin="VSS_12" pad="VSS_12"/>
<connect gate="G$1" pin="VSS_13" pad="VSS_13"/>
<connect gate="G$1" pin="VSS_14" pad="VSS_14"/>
<connect gate="G$1" pin="VSS_15" pad="VSS_15"/>
<connect gate="G$1" pin="VSS_16" pad="VSS_16"/>
<connect gate="G$1" pin="VSS_17" pad="VSS_17"/>
<connect gate="G$1" pin="VSS_18" pad="VSS_18"/>
<connect gate="G$1" pin="VSS_19" pad="VSS_19"/>
<connect gate="G$1" pin="VSS_2" pad="VSS_2"/>
<connect gate="G$1" pin="VSS_20" pad="VSS_20"/>
<connect gate="G$1" pin="VSS_21" pad="VSS_21"/>
<connect gate="G$1" pin="VSS_22" pad="VSS_22"/>
<connect gate="G$1" pin="VSS_23" pad="VSS_23"/>
<connect gate="G$1" pin="VSS_24" pad="VSS_24"/>
<connect gate="G$1" pin="VSS_25" pad="VSS_25"/>
<connect gate="G$1" pin="VSS_26" pad="VSS_26"/>
<connect gate="G$1" pin="VSS_27" pad="VSS_27"/>
<connect gate="G$1" pin="VSS_28" pad="VSS_28"/>
<connect gate="G$1" pin="VSS_29" pad="VSS_29"/>
<connect gate="G$1" pin="VSS_3" pad="VSS_3"/>
<connect gate="G$1" pin="VSS_30" pad="VSS_30"/>
<connect gate="G$1" pin="VSS_31" pad="VSS_31"/>
<connect gate="G$1" pin="VSS_32" pad="VSS_32"/>
<connect gate="G$1" pin="VSS_33" pad="VSS_33"/>
<connect gate="G$1" pin="VSS_34" pad="VSS_34"/>
<connect gate="G$1" pin="VSS_35" pad="VSS_35"/>
<connect gate="G$1" pin="VSS_36" pad="VSS_36"/>
<connect gate="G$1" pin="VSS_37" pad="VSS_37"/>
<connect gate="G$1" pin="VSS_4" pad="VSS_4"/>
<connect gate="G$1" pin="VSS_5" pad="VSS_5"/>
<connect gate="G$1" pin="VSS_6" pad="VSS_6"/>
<connect gate="G$1" pin="VSS_7" pad="VSS_7"/>
<connect gate="G$1" pin="VSS_8" pad="VSS_8"/>
<connect gate="G$1" pin="VSS_9" pad="VSS_9"/>
<connect gate="G$1" pin="VSS_PLL_0" pad="VSS_PLL_0"/>
<connect gate="G$1" pin="VSS_PLL_1" pad="VSS_PLL_1"/>
<connect gate="G$1" pin="VSS_PLL_2" pad="VSS_PLL_2"/>
<connect gate="G$1" pin="VSS_PLL_3" pad="VSS_PLL_3"/>
<connect gate="G$1" pin="WE#" pad="WE#"/>
</connects>
<technologies>
<technology name=""/>
</technologies>
</device>
</devices>
</deviceset>
</devicesets>
</library>
</drawing>
</eagle>
