<?xml version="1.0" encoding="utf-8"?>
<!DOCTYPE eagle SYSTEM "eagle.dtd">
<eagle version="6.3">
<drawing>
<settings>
<setting alwaysvectorfont="no"/>
<setting verticaltext="up"/>
</settings>
<grid distance="0.1" unitdist="inch" unit="inch" style="lines" multiple="1" display="no" altdistance="0.01" altunitdist="inch" altunit="inch"/>
<layers>
<layer number="1" name="Top" color="4" fill="1" visible="yes" active="yes"/>
<layer number="16" name="Bottom" color="1" fill="1" visible="yes" active="yes"/>
<layer number="17" name="Pads" color="2" fill="1" visible="yes" active="yes"/>
<layer number="18" name="Vias" color="2" fill="1" visible="yes" active="yes"/>
<layer number="19" name="Unrouted" color="6" fill="1" visible="yes" active="yes"/>
<layer number="20" name="Dimension" color="15" fill="1" visible="yes" active="yes"/>
<layer number="21" name="tPlace" color="7" fill="1" visible="yes" active="yes"/>
<layer number="22" name="bPlace" color="7" fill="1" visible="yes" active="yes"/>
<layer number="23" name="tOrigins" color="15" fill="1" visible="yes" active="yes"/>
<layer number="24" name="bOrigins" color="15" fill="1" visible="yes" active="yes"/>
<layer number="25" name="tNames" color="7" fill="1" visible="yes" active="yes"/>
<layer number="26" name="bNames" color="7" fill="1" visible="yes" active="yes"/>
<layer number="27" name="tValues" color="7" fill="1" visible="yes" active="yes"/>
<layer number="28" name="bValues" color="7" fill="1" visible="yes" active="yes"/>
<layer number="29" name="tStop" color="7" fill="3" visible="no" active="yes"/>
<layer number="30" name="bStop" color="7" fill="6" visible="no" active="yes"/>
<layer number="31" name="tCream" color="7" fill="4" visible="no" active="yes"/>
<layer number="32" name="bCream" color="7" fill="5" visible="no" active="yes"/>
<layer number="33" name="tFinish" color="6" fill="3" visible="no" active="yes"/>
<layer number="34" name="bFinish" color="6" fill="6" visible="no" active="yes"/>
<layer number="35" name="tGlue" color="7" fill="4" visible="no" active="yes"/>
<layer number="36" name="bGlue" color="7" fill="5" visible="no" active="yes"/>
<layer number="37" name="tTest" color="7" fill="1" visible="no" active="yes"/>
<layer number="38" name="bTest" color="7" fill="1" visible="no" active="yes"/>
<layer number="39" name="tKeepout" color="4" fill="11" visible="yes" active="yes"/>
<layer number="40" name="bKeepout" color="1" fill="11" visible="yes" active="yes"/>
<layer number="41" name="tRestrict" color="4" fill="10" visible="yes" active="yes"/>
<layer number="42" name="bRestrict" color="1" fill="10" visible="yes" active="yes"/>
<layer number="43" name="vRestrict" color="2" fill="10" visible="yes" active="yes"/>
<layer number="44" name="Drills" color="7" fill="1" visible="no" active="yes"/>
<layer number="45" name="Holes" color="7" fill="1" visible="no" active="yes"/>
<layer number="46" name="Milling" color="3" fill="1" visible="no" active="yes"/>
<layer number="47" name="Measures" color="7" fill="1" visible="no" active="yes"/>
<layer number="48" name="Document" color="7" fill="1" visible="yes" active="yes"/>
<layer number="49" name="Reference" color="7" fill="1" visible="yes" active="yes"/>
<layer number="50" name="dxf" color="7" fill="1" visible="no" active="no"/>
<layer number="51" name="tDocu" color="7" fill="1" visible="yes" active="yes"/>
<layer number="52" name="bDocu" color="7" fill="1" visible="yes" active="yes"/>
<layer number="91" name="Nets" color="2" fill="1" visible="yes" active="yes"/>
<layer number="92" name="Busses" color="1" fill="1" visible="yes" active="yes"/>
<layer number="93" name="Pins" color="2" fill="1" visible="no" active="yes"/>
<layer number="94" name="Symbols" color="4" fill="1" visible="yes" active="yes"/>
<layer number="95" name="Names" color="7" fill="1" visible="yes" active="yes"/>
<layer number="96" name="Values" color="7" fill="1" visible="yes" active="yes"/>
<layer number="97" name="Info" color="7" fill="1" visible="yes" active="yes"/>
<layer number="98" name="Guide" color="6" fill="1" visible="yes" active="yes"/>
<layer number="100" name="Muster" color="7" fill="1" visible="no" active="no"/>
<layer number="101" name="Patch_Top" color="12" fill="4" visible="no" active="yes"/>
<layer number="102" name="Vscore" color="7" fill="1" visible="no" active="yes"/>
<layer number="104" name="S_DOKU" color="7" fill="1" visible="no" active="yes"/>
<layer number="116" name="Patch_BOT" color="9" fill="4" visible="no" active="yes"/>
<layer number="199" name="Contour" color="7" fill="1" visible="no" active="yes"/>
<layer number="200" name="200bmp" color="1" fill="10" visible="no" active="no"/>
<layer number="250" name="Descript" color="3" fill="1" visible="no" active="no"/>
<layer number="251" name="SMDround" color="12" fill="11" visible="no" active="no"/>
<layer number="254" name="cooling" color="7" fill="1" visible="no" active="yes"/>
</layers>
<library>
<packages>
<package name="MICROSWITCH-5X5">
<wire x1="-2.5" y1="2.5" x2="2.5" y2="2.5" width="0.1" layer="21"/>
<wire x1="2.5" y1="2.5" x2="2.5" y2="-2.5" width="0.1" layer="21"/>
<wire x1="2.5" y1="-2.5" x2="-2.5" y2="-2.5" width="0.1" layer="21"/>
<wire x1="-2.5" y1="-2.5" x2="-2.5" y2="2.5" width="0.1" layer="21"/>
<wire x1="-1.9" y1="1.3" x2="0" y2="1.3" width="0.1" layer="51"/>
<wire x1="0" y1="1.3" x2="1.9" y2="1.3" width="0.1" layer="51"/>
<wire x1="-1.9" y1="-1.3" x2="0" y2="-1.3" width="0.1" layer="51"/>
<wire x1="0" y1="-1.3" x2="1.9" y2="-1.3" width="0.1" layer="51"/>
<wire x1="0" y1="1.3" x2="0" y2="0.4" width="0.1" layer="51"/>
<wire x1="0" y1="0.4" x2="0.4" y2="-0.4" width="0.1" layer="51"/>
<wire x1="0" y1="-0.4" x2="0" y2="-1.3" width="0.1" layer="51"/>
<wire x1="0.5" y1="0.1" x2="0.9" y2="0.1" width="0.1" layer="51"/>
<wire x1="0.5" y1="-0.1" x2="0.9" y2="-0.1" width="0.1" layer="51"/>
<wire x1="0.9" y1="0.3" x2="0.9" y2="0.1" width="0.1" layer="51"/>
<wire x1="0.9" y1="0.1" x2="0.9" y2="-0.1" width="0.1" layer="51"/>
<wire x1="0.9" y1="-0.1" x2="0.9" y2="-0.3" width="0.1" layer="51"/>
<smd name="P$1" x="-2.5" y="1.3" dx="1.6764" dy="0.8128" layer="1"/>
<smd name="P$2" x="2.5" y="1.3" dx="1.6764" dy="0.8128" layer="1"/>
<smd name="P$3" x="2.5" y="-1.3" dx="1.6764" dy="0.8128" layer="1"/>
<smd name="P$4" x="-2.5" y="-1.3" dx="1.6764" dy="0.8128" layer="1"/>
</package>
</packages>
<symbols>
<symbol name="TASTER">
<wire x1="1.905" y1="0" x2="2.54" y2="0" width="0.254" layer="94"/>
<wire x1="1.905" y1="4.445" x2="1.905" y2="3.175" width="0.254" layer="94"/>
<wire x1="-1.905" y1="4.445" x2="-1.905" y2="3.175" width="0.254" layer="94"/>
<wire x1="1.905" y1="4.445" x2="0" y2="4.445" width="0.254" layer="94"/>
<wire x1="0" y1="4.445" x2="-1.905" y2="4.445" width="0.254" layer="94"/>
<wire x1="0" y1="2.54" x2="0" y2="1.905" width="0.1524" layer="94"/>
<wire x1="0" y1="1.27" x2="0" y2="0.635" width="0.1524" layer="94"/>
<wire x1="0" y1="4.445" x2="0" y2="3.175" width="0.1524" layer="94"/>
<wire x1="2.54" y1="-2.54" x2="2.54" y2="0" width="0.1524" layer="94"/>
<wire x1="-2.54" y1="-2.54" x2="-2.54" y2="0" width="0.1524" layer="94"/>
<wire x1="-2.54" y1="0" x2="1.905" y2="1.27" width="0.254" layer="94"/>
<circle x="-2.54" y="0" radius="0.127" width="0.4064" layer="94"/>
<circle x="2.54" y="0" radius="0.127" width="0.4064" layer="94"/>
<text x="-2.54" y="6.35" size="1.778" layer="95">&gt;NAME</text>
<text x="3.175" y="3.81" size="1.778" layer="96">&gt;VALUE</text>
<pin name="P" x="-5.08" y="0" visible="pad" length="short" direction="pas" swaplevel="2"/>
<pin name="S" x="5.08" y="0" visible="pad" length="short" direction="pas" swaplevel="1" rot="R180"/>
<pin name="S1" x="5.08" y="-2.54" visible="pad" length="short" direction="pas" swaplevel="1" rot="R180"/>
<pin name="P1" x="-5.08" y="-2.54" visible="pad" length="short" direction="pas" swaplevel="2"/>
</symbol>
</symbols>
<devicesets>
<deviceset name="MICROSWITCH-5X5">
<gates>
<gate name="G$1" symbol="TASTER" x="0" y="0"/>
</gates>
<devices>
<device name="" package="MICROSWITCH-5X5">
<connects>
<connect gate="G$1" pin="P" pad="P$1"/>
<connect gate="G$1" pin="P1" pad="P$2"/>
<connect gate="G$1" pin="S" pad="P$3"/>
<connect gate="G$1" pin="S1" pad="P$4"/>
</connects>
<technologies>
<technology name=""/>
</technologies>
</device>
</devices>
</deviceset>
</devicesets>
</library>
</drawing>
</eagle>
