<?xml version="1.0" encoding="utf-8"?>
<!DOCTYPE eagle SYSTEM "eagle.dtd">
<eagle version="6.4">
<drawing>
<settings>
<setting alwaysvectorfont="no"/>
<setting verticaltext="up"/>
</settings>
<grid distance="0.1" unitdist="inch" unit="inch" style="lines" multiple="1" display="no" altdistance="0.01" altunitdist="inch" altunit="inch"/>
<layers>
<layer number="1" name="Top" color="4" fill="1" visible="yes" active="yes"/>
<layer number="16" name="Bottom" color="1" fill="1" visible="yes" active="yes"/>
<layer number="17" name="Pads" color="2" fill="1" visible="yes" active="yes"/>
<layer number="18" name="Vias" color="2" fill="1" visible="yes" active="yes"/>
<layer number="19" name="Unrouted" color="6" fill="1" visible="yes" active="yes"/>
<layer number="20" name="Dimension" color="15" fill="1" visible="yes" active="yes"/>
<layer number="21" name="tPlace" color="7" fill="1" visible="yes" active="yes"/>
<layer number="22" name="bPlace" color="7" fill="1" visible="yes" active="yes"/>
<layer number="23" name="tOrigins" color="15" fill="1" visible="yes" active="yes"/>
<layer number="24" name="bOrigins" color="15" fill="1" visible="yes" active="yes"/>
<layer number="25" name="tNames" color="7" fill="1" visible="yes" active="yes"/>
<layer number="26" name="bNames" color="7" fill="1" visible="yes" active="yes"/>
<layer number="27" name="tValues" color="7" fill="1" visible="yes" active="yes"/>
<layer number="28" name="bValues" color="7" fill="1" visible="yes" active="yes"/>
<layer number="29" name="tStop" color="7" fill="3" visible="no" active="yes"/>
<layer number="30" name="bStop" color="7" fill="6" visible="no" active="yes"/>
<layer number="31" name="tCream" color="7" fill="4" visible="no" active="yes"/>
<layer number="32" name="bCream" color="7" fill="5" visible="no" active="yes"/>
<layer number="33" name="tFinish" color="6" fill="3" visible="no" active="yes"/>
<layer number="34" name="bFinish" color="6" fill="6" visible="no" active="yes"/>
<layer number="35" name="tGlue" color="7" fill="4" visible="no" active="yes"/>
<layer number="36" name="bGlue" color="7" fill="5" visible="no" active="yes"/>
<layer number="37" name="tTest" color="7" fill="1" visible="no" active="yes"/>
<layer number="38" name="bTest" color="7" fill="1" visible="no" active="yes"/>
<layer number="39" name="tKeepout" color="4" fill="11" visible="yes" active="yes"/>
<layer number="40" name="bKeepout" color="1" fill="11" visible="yes" active="yes"/>
<layer number="41" name="tRestrict" color="4" fill="10" visible="yes" active="yes"/>
<layer number="42" name="bRestrict" color="1" fill="10" visible="yes" active="yes"/>
<layer number="43" name="vRestrict" color="2" fill="10" visible="yes" active="yes"/>
<layer number="44" name="Drills" color="7" fill="1" visible="no" active="yes"/>
<layer number="45" name="Holes" color="7" fill="1" visible="no" active="yes"/>
<layer number="46" name="Milling" color="3" fill="1" visible="no" active="yes"/>
<layer number="47" name="Measures" color="7" fill="1" visible="no" active="yes"/>
<layer number="48" name="Document" color="7" fill="1" visible="yes" active="yes"/>
<layer number="49" name="Reference" color="7" fill="1" visible="yes" active="yes"/>
<layer number="51" name="tDocu" color="7" fill="1" visible="yes" active="yes"/>
<layer number="52" name="bDocu" color="7" fill="1" visible="yes" active="yes"/>
<layer number="91" name="Nets" color="2" fill="1" visible="yes" active="yes"/>
<layer number="92" name="Busses" color="1" fill="1" visible="yes" active="yes"/>
<layer number="93" name="Pins" color="2" fill="1" visible="no" active="yes"/>
<layer number="94" name="Symbols" color="4" fill="1" visible="yes" active="yes"/>
<layer number="95" name="Names" color="7" fill="1" visible="yes" active="yes"/>
<layer number="96" name="Values" color="7" fill="1" visible="yes" active="yes"/>
<layer number="97" name="Info" color="7" fill="1" visible="yes" active="yes"/>
<layer number="98" name="Guide" color="6" fill="1" visible="yes" active="yes"/>
</layers>
<library>
<packages>
<package name="XAL40">
<smd name="1" x="-1" y="-0.87" dx="0.98" dy="3.7" layer="1"/>
<smd name="2" x="1.37" y="-0.87" dx="0.98" dy="3.7" layer="1"/>
<wire x1="-1.82" y1="1.12" x2="-1.82" y2="-2.88" width="0.127" layer="51"/>
<wire x1="-1.82" y1="-2.88" x2="2.18" y2="-2.88" width="0.127" layer="51"/>
<wire x1="2.18" y1="-2.88" x2="2.18" y2="1.12" width="0.127" layer="51"/>
<wire x1="2.18" y1="1.12" x2="-1.82" y2="1.12" width="0.127" layer="51"/>
<wire x1="-2.2" y1="1.4" x2="-2.2" y2="-3.2" width="0.127" layer="39"/>
<wire x1="-2.2" y1="-3.2" x2="2.6" y2="-3.2" width="0.127" layer="39"/>
<wire x1="2.6" y1="-3.2" x2="2.6" y2="1.4" width="0.127" layer="39"/>
<wire x1="2.6" y1="1.4" x2="-2.2" y2="1.4" width="0.127" layer="39"/>
</package>
</packages>
<symbols>
<symbol name="L-US">
<wire x1="0" y1="5.08" x2="1.27" y2="3.81" width="0.254" layer="94" curve="-90"/>
<wire x1="0" y1="2.54" x2="1.27" y2="3.81" width="0.254" layer="94" curve="90"/>
<wire x1="0" y1="2.54" x2="1.27" y2="1.27" width="0.254" layer="94" curve="-90"/>
<wire x1="0" y1="0" x2="1.27" y2="1.27" width="0.254" layer="94" curve="90"/>
<wire x1="0" y1="0" x2="1.27" y2="-1.27" width="0.254" layer="94" curve="-90"/>
<wire x1="0" y1="-2.54" x2="1.27" y2="-1.27" width="0.254" layer="94" curve="90"/>
<wire x1="0" y1="-2.54" x2="1.27" y2="-3.81" width="0.254" layer="94" curve="-90"/>
<wire x1="0" y1="-5.08" x2="1.27" y2="-3.81" width="0.254" layer="94" curve="90"/>
<text x="-1.27" y="-5.08" size="1.778" layer="95" rot="R90">&gt;NAME</text>
<text x="3.81" y="-5.08" size="1.778" layer="96" rot="R90">&gt;VALUE</text>
<pin name="2" x="0" y="-7.62" visible="off" length="short" direction="pas" swaplevel="1" rot="R90"/>
<pin name="1" x="0" y="7.62" visible="off" length="short" direction="pas" swaplevel="1" rot="R270"/>
</symbol>
</symbols>
<devicesets>
<deviceset name="XAL40" uservalue="yes">
<gates>
<gate name="A" symbol="L-US" x="5.08" y="0"/>
</gates>
<devices>
<device name="" package="XAL40">
<connects>
<connect gate="A" pin="1" pad="1"/>
<connect gate="A" pin="2" pad="2"/>
</connects>
<technologies>
<technology name=""/>
</technologies>
</device>
</devices>
</deviceset>
</devicesets>
</library>
</drawing>
</eagle>
